dsr_spiral_900.png,-7.980117305588274,-4.192086737552791,-5.267076558952053,-8.691020456801182
dsr_spiral_901.png,-1.1342843584692481,3.4240953320416505,-4.878141767813279,2.1299328400319038
dsr_spiral_902.png,0.582409188640133,-0.6827401296854223,5.3387738716534745,2.554462191711158
dsr_spiral_903.png,-8.73277129638199,7.038602273706726,-6.355972945463881,-3.1276640564549023
dsr_spiral_904.png,5.954885661363253,7.655321351521245,0.14762406119114324,-2.8891729041987864
dsr_spiral_905.png,6.829236131473602,4.337330745793512,-8.681873300503735,2.1263300323880028
dsr_spiral_906.png,0.9912545579574754,1.6683942078107226,4.371215743509033,-8.808829029797
dsr_spiral_907.png,-3.346542060103821,-7.478583477084383,-4.6773565132227795,8.696471081917942
dsr_spiral_908.png,-6.915742922898582,3.8552146720836884,-4.397663372569023,8.772445929700197
dsr_spiral_909.png,5.106373515508922,1.675179295931697,-5.18681103394648,6.996893136299464
dsr_spiral_910.png,-0.8218497602665771,4.306908770644826,1.2094339285389744,-0.6111517616514401
dsr_spiral_911.png,-1.805176626976741,7.49779523239086,-8.230631834508504,-1.5037372235195976
dsr_spiral_912.png,-6.825127825493883,-6.189693886989043,-6.8987737379047935,1.9110270858808303
dsr_spiral_913.png,-1.7648381673993816,-4.724894066673932,1.346309608552474,-7.16303118809995
dsr_spiral_914.png,2.7450962489139723,7.142146252143753,2.289711352905808,-1.5555991155185431
dsr_spiral_915.png,1.8294346230282699,-5.824592945533961,-4.768964420089482,-5.448362465566571
dsr_spiral_916.png,8.328035168887318,-1.1773569876713523,-0.9842459914452757,-4.071762762361084
dsr_spiral_917.png,0.08874395997628426,-7.847133203884731,8.177590527016754,-6.152704006083803
dsr_spiral_918.png,3.017564552813351,-3.753225499152787,-8.498664734089548,-2.5830390318828247
dsr_spiral_919.png,2.6529705715244667,4.321907563020487,6.365286556195475,-1.4052193229811802
dsr_spiral_920.png,-1.2182790831603976,3.892010304796216,-7.937032108961087,5.84212184822289
dsr_spiral_921.png,7.1283388029134755,-3.492622337658892,-7.407531496889997,-4.237933601822602
dsr_spiral_922.png,-1.0697756080324403,0.6116822643816633,-5.764982044993642,0.44307346386856317
dsr_spiral_923.png,7.089460733432258,-0.4869780763947844,0.276139318586635,-3.3152012641205344
dsr_spiral_924.png,-4.476252564312844,-1.0917996618071486,-7.1821825960593895,-1.419120124713194
dsr_spiral_925.png,6.247931385093384,1.5388026725314834,2.2437045939456723,3.541051384982243
dsr_spiral_926.png,-5.963492670007984,1.0152051313019292,3.2663776385468335,-7.080152643768697
dsr_spiral_927.png,-8.52031531166638,1.2371754389990492,5.241138127192258,2.9640660839683264
dsr_spiral_928.png,-3.9981548522898516,-8.230946014583708,-5.045708600888349,3.783214412019026
dsr_spiral_929.png,-3.506291782442414,6.06515086891576,5.386419444719884,5.578995054925851
dsr_spiral_930.png,2.663796209204577,-4.0355191709879294,-2.727780101206042,-7.196870059569029
dsr_spiral_931.png,1.3708732192205115,0.11060309124542833,-4.673709952249627,-3.4920464219717218
dsr_spiral_932.png,-5.704882197236662,1.9353338270736167,1.9643434335074303,4.340360384249543
dsr_spiral_933.png,-4.864914153257434,2.001151367467786,-5.867626810758914,-4.046685519898107
dsr_spiral_934.png,-1.0864862813149916,-6.461733713252384,-7.2554411709359545,-7.070769154501306
dsr_spiral_935.png,8.921244192486348,-0.8416225664325641,-5.904111843458448,7.114534592356669
dsr_spiral_936.png,6.656959396228851,-2.2051530138164406,-5.477510168156374,-3.3926231989227444
dsr_spiral_937.png,-6.047046980957203,8.723257719471228,-7.266943776979872,-1.433911047278741
dsr_spiral_938.png,6.78683943433426,1.1595973380140006,8.719934939998328,3.0287515595119316
dsr_spiral_939.png,-8.384149018264882,3.443019725388245,-3.161877256879796,-3.6897402014393865
dsr_spiral_940.png,5.294781456615754,6.115209460932448,1.5335448202521818,-7.71291684012686
dsr_spiral_941.png,2.6949402454536706,-3.123042597960742,6.81087827979497,6.136840713891951
dsr_spiral_942.png,8.999647242246862,5.506558223572892,-4.962817743651836,-6.387560731649037
dsr_spiral_943.png,3.3856705672887166,7.848236698757628,7.871352683027062,-7.045857913289773
dsr_spiral_944.png,-0.6751792254685451,-7.905329881911506,-6.258802854159063,-5.680397130714322
dsr_spiral_945.png,-0.44650234325314564,6.180703477243712,-1.4574484096572222,1.137751023524233
dsr_spiral_946.png,7.275185650818919,7.825012854554654,-3.734902823101682,-7.947783799579738
dsr_spiral_947.png,-3.2692424370385673,1.9089652317532817,-0.4001535107155405,-7.724626468349099
dsr_spiral_948.png,-0.9802811058871157,-6.4289409187547975,3.13866643080946,-8.722408452192084
dsr_spiral_949.png,-3.1068438685900936,8.730372719861261,0.05196104726872797,1.8350226081645253
dsr_spiral_950.png,1.9965364540575283,-4.399074251142738,-2.2939520669430244,5.648793128474788
dsr_spiral_951.png,8.094498138401754,-3.070594302780478,-4.870477638187905,-1.4094503724141525
dsr_spiral_952.png,-5.812520010737848,-6.130846201386073,5.9756084658959825,7.737506849760717
dsr_spiral_953.png,8.824818783450205,-3.325851201947817,4.6348207001227735,-0.35530843339146756
dsr_spiral_954.png,4.201303500160181,-3.9804475204874947,-3.0781553076945194,8.740935035307885
dsr_spiral_955.png,-3.6444479365203817,-5.241476049273907,1.5993307794866531,0.6462858083250556
dsr_spiral_956.png,1.3025643767600403,4.20582639497543,6.23210133415029,-5.348355383785194
dsr_spiral_957.png,-5.496095022351118,-2.324357891781953,-4.090962986658085,-6.338759940094145
dsr_spiral_958.png,7.17624138161986,-8.99460100991881,0.6418548060018789,8.645493499811138
dsr_spiral_959.png,-4.64462190878036,-5.026847767838025,1.486224086195726,-4.962648061522822
dsr_spiral_960.png,8.382301542929408,-0.39676650702812566,-7.503899058125251,-7.7755121537378455
dsr_spiral_962.png,-4.3930116180334675,-0.9682303961724603,-6.313168932907302,3.921786830792513
dsr_spiral_963.png,-6.55990184054036,-4.449637246175509,-2.940080086015473,2.577055906803631
dsr_spiral_964.png,-7.640075675177211,-8.392724965600985,3.6017297966239425,4.35915192689928
dsr_spiral_965.png,-2.1766478151123545,-7.147477971486532,-4.122614260114033,5.860204564785354
dsr_spiral_966.png,7.8447966185874485,7.308060430122982,-8.340393000879066,-7.9963843096004865
dsr_spiral_967.png,4.1502285249595925,2.4289235892350973,-5.203946762831672,2.443307723535142
dsr_spiral_968.png,-1.0598683047454545,2.1406267538472186,2.974204419533155,8.853843161335838
dsr_spiral_969.png,-3.94438626547963,-4.433501689276943,-6.979527265725594,5.496368632958067
dsr_spiral_970.png,-8.380039525291984,6.046506660053046,2.6010381233461306,-2.1129356028692374
dsr_spiral_971.png,-3.4854112222383886,-7.370200574656886,-0.6478140418952378,-5.407442834179003
dsr_spiral_972.png,3.277703907223499,7.913779257373591,-5.585653784289388,0.27897509268931486
dsr_spiral_973.png,-8.998159094051942,0.5774165505552862,-7.634450843033489,3.4588068907980016
dsr_spiral_974.png,-6.063645686759937,-7.2953148163679735,5.881880039065409,6.095860040857502
dsr_spiral_975.png,-8.83721124318096,3.6307461115319555,2.5470586715517367,-2.9302554702064523
dsr_spiral_976.png,1.396953794525734,-3.3800479751526353,-6.455133911360748,0.8229140078378769
dsr_spiral_977.png,3.422654293699109,2.4495271368479585,7.855019553185006,6.409854836423142
dsr_spiral_978.png,3.9775168632319744,1.4152919678102478,-5.05591289775395,-5.966531350413005
dsr_spiral_979.png,6.906075468777537,6.101407997703154,8.039004653575393,4.788910892424525
dsr_spiral_980.png,4.717492460990689,-5.393006485409978,3.619574372983454,-3.481604990087636
dsr_spiral_981.png,-7.943263598159781,-2.0349925915784723,0.18921208646244558,-4.3715783279095035
dsr_spiral_982.png,-7.920734347721045,-3.459496052677169,-1.1610260397911754,3.0687910132759413
dsr_spiral_983.png,5.2781390341516214,2.3362498243711833,-8.233729037453873,5.731244822549522
dsr_spiral_984.png,7.00245707578874,6.884467826598087,3.213618177811865,-5.245532291262434
dsr_spiral_985.png,2.5408116149837703,3.7592007298717576,7.923141473686481,-7.139337495918831
dsr_spiral_986.png,3.2739709623893027,-0.9675885673246682,-4.264105112436265,-4.489705727794183
dsr_spiral_987.png,-4.35585424630159,-8.07868868778707,-3.4254698493883398,0.8035158517829544
dsr_spiral_988.png,3.793052807850623,-2.0516035330501774,-1.6567124137272717,-7.465036722932874
dsr_spiral_989.png,7.2930496205657676,-5.703079453251232,-3.1293894068737416,2.0798005387898115
dsr_spiral_990.png,-4.331646557494154,-7.794723755627411,-6.921160276879889,3.916764389695331
dsr_spiral_991.png,2.8109218975061623,-4.645021965723495,-2.642838480184886,-0.7826772977171341
dsr_spiral_992.png,-7.738835586022152,6.531450783162466,-3.4176980144209264,0.7067834035057885
dsr_spiral_993.png,2.130029572094534,-3.1202547225580703,-6.522762257124457,5.579520923858492
dsr_spiral_994.png,4.715920874876238,-2.982875327898487,5.244716249642387,-1.9184456821728624
dsr_spiral_995.png,-8.319436632997206,1.16993005800939,-7.1732111433649575,7.8413528542124595
dsr_spiral_996.png,-8.69929317741985,-6.663535458904156,-8.418748600853498,-5.000243387007724
dsr_spiral_997.png,-8.191913674082496,0.572203576787885,5.013525392087084,-3.303876786713823
dsr_spiral_998.png,-4.832675141053892,0.9190857336826994,-7.237220348974586,0.5882216390543817
dsr_spiral_999.png,4.119112682949213,7.367281874956664,2.8790464893885,-5.9442757453356165
dsr_spiral_1000.png,0.11524968078942521,-7.725833529417199,-5.33059885659429,-3.0190195960487936
dsr_spiral_1001.png,6.988940624641836,3.4238723439060337,3.475436403258202,-5.63148216131426
dsr_spiral_1002.png,-6.385402163916156,-8.462962549694375,8.123157649349693,0.9038986085573857
dsr_spiral_1003.png,-4.467300973664699,-2.78509698928909,-6.331366789789909,1.5096583468803164
dsr_spiral_1004.png,0.9807278274847224,5.2224218861612535,-8.099339991183527,4.785371081182918
dsr_spiral_1005.png,4.97258620618701,7.79626253943837,-5.7140984437884486,3.739937155325805
dsr_spiral_1006.png,4.272626368857564,-4.985089176817173,0.5037304364398487,6.149882978967042
dsr_spiral_1007.png,-5.007474998520468,2.2147055319800124,-7.745150417790561,1.5929863811211558
dsr_spiral_1008.png,7.594757090271155,-5.942611548258252,8.250795983874657,-1.9784391132336854
dsr_spiral_1009.png,0.9444717694509901,-8.410116356318248,6.225544872205916,8.798157556928917
dsr_spiral_1010.png,-0.22329157837092595,4.659489296294426,6.386221952102945,7.4339362917949465
dsr_spiral_1011.png,3.238177080458577,-4.066392413811086,-7.69526505914301,-2.65480254905133
dsr_spiral_1012.png,-4.532300225768657,-5.033233937526283,-3.0762651183844856,7.907969060124032
dsr_spiral_1013.png,-0.8575980185490213,6.543847502926964,-3.914009321452798,-8.524226120669782
dsr_spiral_1014.png,-1.0937086664178581,-2.77598382859402,-3.2755908853100797,5.473184349984939
dsr_spiral_1015.png,-7.4867369639774015,3.386213458398778,-5.126225278515109,6.655229124858339
dsr_spiral_1016.png,6.516820350958927,7.515364779491321,-0.05107541638463431,7.2167432591248115
dsr_spiral_1017.png,-7.603067023915273,-7.163295786087301,5.500216315663426,-2.832861672676117
dsr_spiral_1018.png,-1.003759550792708,-4.838690885445374,-8.985000086062206,2.726103279135451
dsr_spiral_1019.png,-1.8346211718220538,-4.868191439273248,5.291593846599149,-7.56138294260668
dsr_spiral_1020.png,-0.031880402238895655,6.270180387701737,6.377857880833192,6.93854885386925
dsr_spiral_1021.png,8.472551613505768,3.2784027189870155,1.1069811625080952,6.325039757456061
dsr_spiral_1022.png,-2.5227042144733023,4.5218898689318845,1.106873201349437,-0.04379223462111348
dsr_spiral_1023.png,2.2969866412082673,3.8984811310788032,-2.1993536042956503,6.060167836918675
dsr_spiral_1024.png,4.636647819599707,-4.217262736352149,7.961663375099931,3.0149801367934383
dsr_spiral_1025.png,1.6074630276051831,3.614921409202502,8.773714756822102,5.6235892373058345
dsr_spiral_1026.png,-0.7499479886631519,-1.0010540235994227,-2.8478591614459496,7.959973075208559
dsr_spiral_1027.png,-1.175009761986865,7.681102593540867,2.4019301403328708,-2.0713913377193798
dsr_spiral_1028.png,8.768731361841322,2.534022351377967,8.720602520076863,8.611852500917983
dsr_spiral_1029.png,-3.489758626540344,0.39711065691160385,-2.7885934997100694,-4.613382125918674
dsr_spiral_1030.png,8.155061855047467,2.5283635796177446,-1.4389934196393162,3.0628154368043248
dsr_spiral_1031.png,-4.126467554269099,-8.595165053392732,1.0146444259838496,-6.104308335104044
dsr_spiral_1032.png,-8.509754454256157,-6.483252813267284,-1.8190732962551692,7.271613973087266
dsr_spiral_1033.png,-8.673608862198282,-5.288340698170672,0.031467939256602406,-6.574389226772743
dsr_spiral_1034.png,-0.8755766497477993,6.195680752461222,4.848706379490093,-8.204775597276804
dsr_spiral_1035.png,-5.858334917553824,3.234939764462892,2.6396999237322287,-6.985878618790316
dsr_spiral_1036.png,-0.6759698834724137,4.548578997840529,-0.9711838192070257,-4.221403296410702
dsr_spiral_1037.png,-0.3042309205420839,8.069765756860367,-7.800762551732561,-2.2843942567646662
dsr_spiral_1038.png,-5.382405513288473,-3.212577500470889,5.220665807477399,6.669751449390118
dsr_spiral_1039.png,-1.1103287174342586,-3.4355844796943185,3.5271137876201593,-6.779265372979647
dsr_spiral_1040.png,-4.725373442979865,-2.6207337762886604,-4.953945679066611,-4.469253927810875
dsr_spiral_1041.png,-1.8560322448054407,-0.5547402766522396,-3.6968913317268353,-2.327412985944415
dsr_spiral_1042.png,2.762648590446396,4.834349015109403,5.712593069721837,-1.0711657880438192
dsr_spiral_1043.png,-5.760732865135183,-0.984621894076291,2.4915701916833672,-4.246784238646578
dsr_spiral_1044.png,5.967114902227998,-3.453055630801593,-4.539732864334314,2.3765121350860063
dsr_spiral_1045.png,3.9546987252508856,4.470600995246409,8.714668545004109,5.731308653272645
dsr_spiral_1046.png,0.656119332259383,7.885465663274058,-8.828845875322866,-4.171245545710126
dsr_spiral_1047.png,2.019341880598267,-5.2693611750125395,-0.1773391894077747,-0.4692525900113633
dsr_spiral_1048.png,-8.281641483589368,5.1845798781692825,-0.6664397422006658,-1.6694643740172124
dsr_spiral_1049.png,7.831611588977832,7.356839270521181,-7.419515670469627,-1.499398917598045
dsr_spiral_1050.png,6.316015136282605,-4.236345640699083,3.997492135258387,7.414783132737615
dsr_spiral_1051.png,-8.500210221862648,-0.6840590325940497,7.960779713978724,-6.577198017667772
dsr_spiral_1052.png,4.1306100178105645,7.219512139177056,-6.945040033582022,-6.484546245122982
dsr_spiral_1053.png,8.359173409988994,2.3381535986255564,-8.966816259244053,-6.276567389282118
dsr_spiral_1054.png,-1.3495148281634473,5.712556053887557,8.47745107362556,1.40525104689074
dsr_spiral_1055.png,3.8762474954700643,-6.10505156753651,8.803338146497794,8.06421842094251
dsr_spiral_1056.png,7.590195250546756,8.291886045234289,3.270653404403843,-1.0429496551046338
dsr_spiral_1057.png,-2.459397537680527,5.17307170420222,5.449773301147848,-8.862284340337782
dsr_spiral_1058.png,3.5655657135129655,3.4027479503736426,-6.2227297279881455,0.8591940242263654
dsr_spiral_1059.png,5.236637088436616,4.406957504671386,7.717155880853362,7.486446725893206
dsr_spiral_1060.png,-1.978885727682183,-2.3609327908486435,0.8509992752516915,-6.879737040981347
dsr_spiral_1061.png,5.027767210810454,-5.667898395878508,6.0755328982577,5.008269718083097
dsr_spiral_1062.png,-0.051105749186106664,5.970178407022701,0.034002147283302975,-8.244864553480406
dsr_spiral_1063.png,-5.4956141467079425,-4.7314179000532866,0.921975762521928,1.1459110443728342
dsr_spiral_1064.png,1.4018472690068187,8.916714679112346,6.177249976060235,-8.820821910172855
dsr_spiral_1065.png,-8.891109204978175,4.265178189037108,0.5480962588714569,8.997819364290933
dsr_spiral_1066.png,0.04837359940109209,-1.6575386452638883,-3.2461209196817977,7.397709506512808
dsr_spiral_1067.png,3.9399414465724725,6.575578994512119,-4.0303266303352,4.532131395217922
dsr_spiral_1068.png,-0.747510679420504,-4.155682740858169,-4.5905618449588115,-4.536541532625918
dsr_spiral_1069.png,-3.7830922558203337,2.314374806506457,-1.544082644384119,4.8545582743941385
dsr_spiral_1070.png,3.102637029758302,-5.9242851404298165,-0.36414528674217195,-2.642045619821027
dsr_spiral_1071.png,0.18747966828424367,6.592157516894758,-5.0710851499562635,0.20722556899173128
dsr_spiral_1072.png,-5.190005710594751,1.5467520762459497,-5.951009571353567,2.7848923625403685
dsr_spiral_1073.png,-4.220253847100055,-0.48674256356108536,-7.8591941732889925,-7.999938917412432
dsr_spiral_1074.png,-8.020667982551833,3.9203563753778887,-5.338922610350842,3.288907058010146
dsr_spiral_1075.png,5.289217854186278,7.263810278588615,-5.720315711024487,1.7774074573197929
dsr_spiral_1076.png,3.699549354269582,3.778721323411247,-8.188739458871991,-1.8069498684009675
dsr_spiral_1077.png,2.979429779660739,-0.1990488266693866,0.4864170323238355,-1.730166928048095
dsr_spiral_1078.png,-4.891289267549573,5.06685438864581,6.7246296051859105,-8.545458582490099
dsr_spiral_1079.png,2.1995142786623845,-3.3617494559435412,-4.644043902575697,-1.9569799742546827
dsr_spiral_1080.png,-3.8495018643725176,-2.858450379246408,-3.728798545510199,-0.7870582133379571
dsr_spiral_1081.png,3.026390159284068,7.268194717276561,2.6045241231786047,-4.134057631321018
dsr_spiral_1082.png,1.3997964222788486,-6.09281618963054,6.050809401566859,-4.059286015926769
dsr_spiral_1083.png,1.8750458156926708,-8.515440994377805,-2.4718542103883223,-5.994412451016777
dsr_spiral_1084.png,0.16566193769032012,-4.740790616438607,-4.239070724192599,-5.0006097260452975
dsr_spiral_1085.png,-5.163248679678994,-2.83914103544603,2.6808642929143005,2.1599110774915893
dsr_spiral_1086.png,6.31099169250175,-2.7350901169369664,4.293977566597267,6.234335768702248
dsr_spiral_1087.png,-1.7271393980173704,7.204255043223842,2.275314655153471,8.565920946700952
dsr_spiral_1088.png,-1.876454594927595,5.099420901962956,-6.609215411545015,-3.173634171383041
dsr_spiral_1089.png,-2.9637900952935006,-8.904837785234394,2.6297431564793303,-1.0535210629318854
dsr_spiral_1090.png,-4.93714163558162,-7.099033258010861,-2.6777620659425594,7.285199256535183
dsr_spiral_1091.png,-7.9282528604747124,-4.987512222055962,-3.162500919490668,-5.6223839340803385
dsr_spiral_1092.png,2.905771752024487,-8.644127828457473,-2.7286550570193517,-7.308257596820531
dsr_spiral_1093.png,-6.594697575550297,-5.9694294079536325,-1.9489337832842217,8.019519216469817
dsr_spiral_1094.png,-2.855952518934254,-6.0787083418337104,-2.5755568125693813,7.861170238729898
dsr_spiral_1095.png,-7.9433846879372965,-6.078957343900422,3.3889405698182866,0.8988098347282314
dsr_spiral_1096.png,-3.7090537044877028,7.7022626660777505,7.377723199451726,-3.6170279598705433
dsr_spiral_1097.png,0.7117416538431556,6.20638286023088,7.454399855465127,4.067996360523118
dsr_spiral_1098.png,-5.354300084271559,-5.7091482637943765,6.294385099024941,0.014226294038884646
dsr_spiral_1099.png,-2.1791402934063404,7.810996663701584,-0.37243407847923393,3.534388174955991
dsr_spiral_1100.png,6.639247006205055,-7.271040848912165,-3.2300317781907424,-6.11388552023521
dsr_spiral_1101.png,-0.41190221211495626,-0.04723439289593401,-5.973672759326969,0.6538265709576283
dsr_spiral_1102.png,-5.850063600660022,-5.450472050606698,3.5035173432819455,3.7553575134796464
dsr_spiral_1103.png,2.2360086146591236,6.945626957655405,5.857743099374105,6.197061798420647
dsr_spiral_1104.png,-0.7481673149079011,-7.146660289926717,7.826177959398006,-5.473962627518756
dsr_spiral_1105.png,-6.427839619854675,6.063236848063427,3.199038122905103,3.0679059024686417
dsr_spiral_1106.png,-8.413525090740988,5.491679857763163,-6.402847401180786,-8.196210181353424
dsr_spiral_1107.png,-5.035775985855892,2.605371797153813,-6.477483353803582,4.458313288606718
dsr_spiral_1108.png,-8.877607999894652,2.430217245454914,-1.041627644091351,3.8620672818577475
dsr_spiral_1109.png,-5.421849405449532,1.540448382959756,1.911974230760583,7.620325815715237
dsr_spiral_1110.png,-8.058124782731193,-3.4937351125010228,-2.0800085137187176,6.541219726057802
dsr_spiral_1111.png,6.438816617652304,4.88221585928104,3.617741780905064,-7.750746912560014
dsr_spiral_1112.png,5.941288063396685,-1.0893499721229194,0.6325764992615088,-5.812188541454053
dsr_spiral_1113.png,3.424983352538627,-1.1361189619179823,-1.7103040290476832,0.7216912640911346
dsr_spiral_1114.png,6.868423245857764,8.937656902698798,-7.24983461008584,1.1753509053571456
dsr_spiral_1115.png,-2.5505243150449015,3.547079167089329,-6.066456150531151,-5.977774712918233
dsr_spiral_1116.png,-5.725806992081914,-0.05981337390024777,6.968956263783696,-2.9711029998340592
dsr_spiral_1117.png,-2.6780264381922017,7.921284629397714,7.891842766497103,8.098171487751742
dsr_spiral_1118.png,-6.987144981205894,-0.9417493159277619,-8.564490947150535,7.280005579730638
dsr_spiral_1119.png,-7.660486362719447,3.535586389295757,-0.7434151682096761,4.670343957756986
dsr_spiral_1120.png,-2.7926884337053597,3.1798230862016794,-5.673026364811195,-6.600734690995275
dsr_spiral_1121.png,-2.915435098545287,1.0264278797376356,-0.253026460689286,6.037650241478021
dsr_spiral_1122.png,3.8889719668372624,6.151426165856103,-4.101171589300784,5.994315073183262
dsr_spiral_1123.png,3.776894774787552,-7.431022693408725,4.137525086901183,-2.9053565988920678
dsr_spiral_1124.png,-5.650427936188267,-3.4379298037762993,-2.6410215670293757,6.994312582472004
dsr_spiral_1125.png,4.3631461547777235,-8.666431818930397,7.480997020907509,4.818089074750041
dsr_spiral_1126.png,7.362706368600755,5.94772612289036,3.968239931360513,4.798370162224073
dsr_spiral_1127.png,0.30336299954189627,6.475241903588607,-8.003143439776549,-2.967044863791287
dsr_spiral_1128.png,-3.179322339783252,8.945392057175813,3.223507528631462,-3.566200382094224
dsr_spiral_1129.png,-7.644008031060424,-8.01964172550343,-8.158463021871869,5.01417824115212
dsr_spiral_1130.png,-7.913563697194781,-3.6749545383071123,3.464878387506406,-4.676641902247614
dsr_spiral_1131.png,-4.2284375409895905,-5.921170597757463,1.6326424119333645,2.3549196266599335
dsr_spiral_1132.png,2.2528727973076634,5.516126047411314,-1.2819745212426552,7.725369174898532
dsr_spiral_1133.png,5.693308981717843,-6.273331846454003,-5.298861542666562,-6.3244235787599585
dsr_spiral_1134.png,-2.852312234520128,8.66908522620097,6.979869834815329,-0.2692577684026354
dsr_spiral_1135.png,0.31185385321643366,-3.4051350335525266,-5.536542936130781,-8.45733717390534
dsr_spiral_1136.png,0.7424572333188078,0.6112972256018097,7.196910888246542,-8.404707806968773
dsr_spiral_1137.png,-8.406967355355745,3.805630978433559,4.130786386111193,1.7646198461816756
dsr_spiral_1138.png,1.8213453822098522,2.291348008666535,5.876777578689445,5.139857704587341
dsr_spiral_1139.png,-3.3865307895167858,2.25738880507266,0.07791909208103043,-2.934748211280205
dsr_spiral_1140.png,-0.28205528324399154,-2.6925785123628305,-7.294858263842483,8.262555032819684
dsr_spiral_1141.png,6.647356376748917,-7.1531372604516985,-7.318399807241962,-5.315203518450478
dsr_spiral_1142.png,3.159162809375113,-7.8246229408176,-7.984189944125381,-4.259133874007682
dsr_spiral_1143.png,-3.944540948018724,-5.936708839736131,-4.065316562765483,-4.558790507785809
dsr_spiral_1144.png,-1.4713262179263884,7.137282796809757,-0.09850437427636294,4.192022135576627
dsr_spiral_1145.png,-8.25863219880937,3.90532410703422,3.541376284228143,3.043268527810355
dsr_spiral_1146.png,3.1537604343524297,5.045790861012577,-6.996282312249015,0.8181778597810236
dsr_spiral_1147.png,-4.86457369198293,-0.8797389514614835,4.042134201299524,-2.585224588807126
dsr_spiral_1148.png,2.725392934992014,-7.439798701341646,6.295326828396545,2.644763261759673
dsr_spiral_1149.png,-5.157202708778712,-7.223870215993286,-4.4090540884753295,-1.6620201220946988
dsr_spiral_1150.png,-1.4577415061303416,8.763935024313561,-0.35629833232769137,-6.727819019657492
dsr_spiral_1151.png,-7.442434865338238,4.065388028680379,-5.161113468916337,4.469234727839398
dsr_spiral_1152.png,2.827000553349164,3.32062371461177,-1.5393665579044882,0.017042220739933
dsr_spiral_1153.png,-8.105145301863914,-7.996761200898192,-4.443987256006838,3.384342949110824
dsr_spiral_1154.png,3.160017169491521,-8.044025396705628,6.098604830951627,7.041669170022747
dsr_spiral_1155.png,-6.429100596624988,-5.560460079595501,-7.7808469216676075,4.079378799711776
dsr_spiral_1156.png,3.2017006654788034,6.632235851616986,7.977916301808506,-6.75271865864115
dsr_spiral_1157.png,3.805302650958712,-6.657583095532797,-3.972167788372462,6.369799365552881
dsr_spiral_1158.png,2.427261315397903,-8.532493210997979,6.895563847849942,-1.102112490294477
dsr_spiral_1159.png,-5.479612783427797,3.099919326124583,-3.2076025758475097,3.673741995690234
dsr_spiral_1160.png,3.058456698964495,-2.557791934868857,-3.2031484988217116,6.754760752713889
dsr_spiral_1161.png,-3.0524756940260875,-6.771726996317415,3.9730503418370944,-6.503439504298927
dsr_spiral_1162.png,0.7804269241261554,-4.755780564245511,0.5926101892292994,3.381152170452152
dsr_spiral_1163.png,0.7880961029124602,-4.951794933323754,-2.34462078715754,-1.4269209930927733
dsr_spiral_1164.png,8.27529620166587,-3.070138573145149,7.820840926736654,1.9524142215459825
dsr_spiral_1165.png,1.3255203728317504,-7.209786760468932,-0.8995239855152892,0.86496922368325
dsr_spiral_1166.png,7.172609932731245,1.5312658795870995,3.224580890030298,-5.7871901772509275
dsr_spiral_1167.png,-3.3054905904103684,7.784724270447683,8.41643949419143,0.19144174014121518
dsr_spiral_1168.png,1.5000411336588702,0.995814441286166,-3.8569110681949343,-8.971427224924701
dsr_spiral_1169.png,3.6481470587312472,5.149785020100762,-4.765390640829287,-0.8321072512314149
dsr_spiral_1170.png,-8.613169944664026,3.08460380498974,3.477317622055116,6.633149811685396
dsr_spiral_1171.png,8.894841685235878,-8.849752801705748,7.83397860381281,0.1318901867807547
dsr_spiral_1172.png,-3.020881858154059,4.01978999050618,-2.191142984453583,8.665335534173842
dsr_spiral_1173.png,7.4111347562185586,7.916916352922684,-0.4968143429626881,-3.62471113274107
dsr_spiral_1174.png,2.8402867323977876,-0.8208576575428079,-1.9091694335526004,-8.741599507647956
dsr_spiral_1175.png,2.269938659565149,4.060716267240304,-5.792551403058903,2.5452025508275664
dsr_spiral_1176.png,-8.82089658249018,2.788921405723407,6.984676449915922,-7.271711744576396
dsr_spiral_1177.png,0.2508748120258364,-3.849614293329064,2.615362369641744,6.201936523444182
dsr_spiral_1178.png,7.564153646200783,-2.7658748228818837,-6.954637282626769,-8.791970472428563
dsr_spiral_1179.png,0.3547377324889407,-5.895601267967923,-7.227962101210197,-6.286493676378517
dsr_spiral_1180.png,8.43668303106126,-3.00714564530987,7.179587732280531,4.680437549567584
dsr_spiral_1181.png,-2.1297465627836925,1.8403423018619964,7.331090725912919,5.3131396635477355
dsr_spiral_1182.png,6.341317604014339,7.073675156165397,-5.07566566035093,-7.577606135398492
dsr_spiral_1183.png,5.950346422611817,5.88308354690553,-5.629277198423369,7.651071465118061
dsr_spiral_1184.png,-4.8302476263327785,-8.4525989050428,-1.732623356935827,6.273210728710129
dsr_spiral_1185.png,-3.8422079072838553,7.768894440624052,1.3888502136668954,1.8828034770482756
dsr_spiral_1186.png,-2.9914581326028165,-3.7063732481556233,8.443543608011474,6.5792322292262835
dsr_spiral_1187.png,-7.854124508859367,-5.429415511876253,-0.2718767845316279,-8.40685470166105
dsr_spiral_1188.png,-3.2248565570306376,-7.8355739123049455,4.2884703776479896,-5.774481396364097
dsr_spiral_1189.png,-3.784492693400116,-1.2979640498921734,-0.8569237233471689,2.551970211019748
dsr_spiral_1190.png,1.6714146294515064,3.943723516194444,-3.649126557191633,2.469006793613506
dsr_spiral_1191.png,3.9026795451173406,5.451705825006579,-8.249708130397696,-7.284448393651548
dsr_spiral_1192.png,-1.196636722813306,-8.138456435193893,1.5783192139435283,8.309901528664621
dsr_spiral_1193.png,1.2733603086061773,-0.21687837872242,-2.7005669308672537,7.304493998036033
dsr_spiral_1194.png,-3.6625518191180912,4.269309433241499,7.931702131635685,-5.724801050336538
dsr_spiral_1195.png,0.40870938678108537,-0.2217405178357872,5.35017256664851,-4.833219409812184
dsr_spiral_1196.png,-4.253947274945922,-4.32089846799906,5.980929791624565,-8.02096199125274
dsr_spiral_1197.png,5.831815239742138,-1.599492494749792,0.0023594284533565713,-3.1622086276366437
dsr_spiral_1198.png,-1.9516005432760037,0.21508628160369803,2.181761597876651,7.774852696726128
dsr_spiral_1199.png,7.742500068104199,7.932243152130468,4.731438931973832,-1.6084690557675936
dsr_spiral_1200.png,-4.9162048882073375,-4.289505094287612,4.679484343964965,-0.5746593129860145
dsr_spiral_1201.png,8.279199286602527,-3.5121811061804866,-0.6766110778234431,-3.044584825326572
dsr_spiral_1202.png,-5.035929959482015,2.703140804042093,1.8406976904161603,4.271139786953736
dsr_spiral_1203.png,-0.0851600325165105,4.386357898119899,6.590108772094345,-6.642070182919514
dsr_spiral_1204.png,-6.887058001689756,-0.888475175521318,0.5493703339174711,6.913029186839131
dsr_spiral_1205.png,-7.336842965969663,-5.284160987185327,-4.590809065645514,-2.401937044627739
dsr_spiral_1206.png,-6.6451274464475425,4.945393956590745,3.44187607003464,-6.968781637677708
dsr_spiral_1207.png,7.022611225573325,6.641482821859169,2.28817490420151,2.1120599865956198
dsr_spiral_1208.png,0.16456408510124199,7.474447472503336,-1.123113917231077,-7.171236978251066
dsr_spiral_1209.png,7.943299272682083,0.2937057551645488,0.24022609879379786,4.168177935432119
dsr_spiral_1210.png,0.9530495836652157,-2.0231634464257633,3.6676052098553775,-6.755474406572033
dsr_spiral_1211.png,-6.6887282410220035,1.2678094814768137,8.434002847199359,7.120347230418268
dsr_spiral_1212.png,-3.1388391064531174,0.8257320721836514,3.6076279347443077,-1.238060928141011
dsr_spiral_1213.png,1.5118712442531574,-8.17945368148239,-4.873364495210898,5.517749822060797
dsr_spiral_1214.png,3.8450120599307027,3.0602056377584983,-7.175006020981472,-5.988487423612254
dsr_spiral_1215.png,-4.36021751272188,-4.357793923985724,1.6524734264453453,8.255742307521288
dsr_spiral_1216.png,-6.749037112481229,3.0725484895905613,-6.451390552431625,7.921749580259291
dsr_spiral_1217.png,-2.9124370002029423,-4.029460376818477,0.2786356917157349,-6.084861538555824
dsr_spiral_1218.png,-0.7112136237784838,-8.46493120768136,5.5683171844526385,-2.794026731896091
dsr_spiral_1219.png,-7.239591186241265,8.26096854074121,-1.5022112406093129,0.7530223299761456
dsr_spiral_1220.png,0.741465412336618,2.504653334349271,-7.440853196429581,-6.5310850917825585
dsr_spiral_1221.png,-6.873752068851267,3.92093464663159,0.37209533397950345,-3.0437738223841038
dsr_spiral_1222.png,3.502522778044023,-0.26905654247323163,4.144961992107101,-2.3632576921505732
dsr_spiral_1223.png,-3.39417604189763,8.716158415354204,3.3129794343051486,-1.4954432067598926
dsr_spiral_1224.png,-3.093051759357709,-5.784609115104973,4.986541675682391,0.6279804784606746
dsr_spiral_1225.png,4.687838501763906,-7.6524734776886625,1.4259123387727257,4.771619848961148
dsr_spiral_1226.png,-6.930466069703225,-0.6001409760194658,-7.070362923925726,1.2428881030402081
dsr_spiral_1227.png,5.725378410214031,2.819560160650857,8.394659368854544,4.479773601759497
dsr_spiral_1228.png,3.6133631425521315,-5.884041330648458,0.016670711632853497,0.20471945532200309
dsr_spiral_1229.png,0.30129595641395923,5.101860986849353,2.4538903879008345,7.737171394921212
dsr_spiral_1230.png,-2.5356305541895914,6.935872388799218,1.1671912135944869,-0.7247305104344886
dsr_spiral_1231.png,-8.246705702112765,-6.999361469672817,-7.74767927341802,6.584563466926371
dsr_spiral_1232.png,6.439831237710987,-4.625486656163491,-1.870287603110258,-2.095605257585998
dsr_spiral_1233.png,-3.948867269704823,5.3390994594743795,0.21886424559994389,-5.296223249336448
dsr_spiral_1234.png,2.0348683077518377,-2.2104073236170336,-7.801654977059284,2.304983041573875
dsr_spiral_1235.png,-8.01129258382089,-0.25465847639416417,7.166361491841911,-4.782720589578152
dsr_spiral_1236.png,-5.609691411686302,-7.9546734222713,-8.635448968404567,0.06423877533989142
dsr_spiral_1237.png,-7.747571300580258,6.015886797289237,3.0692953535129206,0.8972452660298007
dsr_spiral_1238.png,-3.6506292313349835,1.4757242141596105,-1.1225043890569255,2.5332970481424795
dsr_spiral_1239.png,-8.764328866430787,-6.2491581840341786,-7.345379129162017,3.8589633567804125
dsr_spiral_1240.png,-8.094231640801862,-4.702366276363442,8.463993617345551,3.1348023397999807
dsr_spiral_1241.png,5.570866575010106,-5.3414053050989025,5.759829489264543,1.9317289585645092
dsr_spiral_1242.png,-4.083374000799498,-7.578265925353103,-1.344377223981036,-7.0251210799565325
dsr_spiral_1243.png,-5.217429445731247,0.8890171570056165,-4.90353538053073,6.028670888048383
dsr_spiral_1244.png,-3.9875932892955186,4.1546774299255045,-2.0576647651638362,-8.514839678146924
dsr_spiral_1245.png,-4.715320470930057,-0.16297800127014028,4.816252353107618,-2.056413734141918
dsr_spiral_1246.png,3.875079286002352,8.860891460452088,-1.9512405945109492,-4.776357852295182
dsr_spiral_1247.png,0.6010630713351084,-0.7528936675866262,-1.9494575493493569,2.346069575092553
dsr_spiral_1248.png,7.116311088102961,5.55579235569625,4.6209226772210705,-5.180137524286639
dsr_spiral_1249.png,-8.174888219867531,-1.680056110214018,-1.934896464972769,8.408831467217745
dsr_spiral_1250.png,-1.400599352348003,-5.141005095223418,3.3823326138010863,8.773126480115135
dsr_spiral_1251.png,7.312596953676078,-3.9086756722295153,3.4304936930292698,2.510305895967493
dsr_spiral_1252.png,-3.590431832426723,5.990015643852237,0.2977473227455665,-2.591123738169748
dsr_spiral_1253.png,0.9196543316896069,-5.408370115699116,-0.866254814945048,5.261508973651063
dsr_spiral_1254.png,1.3997896571448916,0.5121209072501287,-4.076178698586926,3.9330921068708786
dsr_spiral_1255.png,7.099613634879923,-4.800026317288581,-8.187429398113082,5.305766116677775
dsr_spiral_1256.png,-0.5431563130114547,-7.548785407683682,0.014232671686380982,6.258038568256547
dsr_spiral_1257.png,3.259261668695636,1.8375599440557,-2.258011217515519,-8.594079035080815
dsr_spiral_1258.png,2.4357801696533734,8.740244413356148,-0.5211053349044352,2.962961842131417
dsr_spiral_1259.png,-7.4063905826311025,1.0842274149389848,-8.867959886081874,-6.42377973926471
dsr_spiral_1260.png,5.363215493017487,-7.152466465512978,4.449393535657357,1.4249904303823087
dsr_spiral_1261.png,-1.554258882581852,-7.459133590458888,-0.15260969248352296,8.952955692045428
dsr_spiral_1262.png,-7.073820144670385,-3.095472507185331,-7.956187688928746,-3.348264659202501
dsr_spiral_1263.png,-2.464794888175293,5.622042422516834,3.850301688871369,1.7557337271821432
dsr_spiral_1264.png,-8.704455582282346,6.381763294319656,0.9990755221181686,7.757815755015383
dsr_spiral_1265.png,-1.5373510946888427,2.8634254639070207,7.388041689645796,6.743796198058865
dsr_spiral_1266.png,-2.1878257890053217,3.220163513057564,-0.07003429289621721,4.377335790150537
dsr_spiral_1267.png,-3.254482706146667,-8.330024142102495,2.484806443601016,-0.2532389265024477
dsr_spiral_1268.png,-0.8185696269274132,-3.261735897545689,-1.2799473565040556,1.8518464562131616
dsr_spiral_1269.png,1.819760608982481,-2.5013310353254035,1.6055220197970836,-4.956720413013022
dsr_spiral_1270.png,7.8021321465366675,0.10848174592103277,6.273221019524009,-0.07186449766096636
dsr_spiral_1271.png,-2.5695344319017845,0.1294428749320513,-7.2852541128492545,2.2688595336575528
dsr_spiral_1272.png,-5.060004837828176,-6.340469394355866,4.978411509037903,-2.605506345531147
dsr_spiral_1273.png,-8.435818438783546,-5.820107824463209,-7.275976279608142,-7.437236026407515
dsr_spiral_1274.png,6.877396446523511,-8.222606014331582,4.353389275834356,0.8518965907771001
dsr_spiral_1275.png,3.3373483016360996,6.9150284571161045,-5.374426047481019,-0.35680902218122057
dsr_spiral_1276.png,-7.567116795763723,-0.9813414211138678,4.7593994741379415,-8.294404360891688
dsr_spiral_1277.png,5.211982191899482,-0.3310077659599866,-2.2266310655078545,5.488459704950728
dsr_spiral_1278.png,7.442694374141869,2.533397781266409,-0.28754286588410594,-5.9259763389452
dsr_spiral_1279.png,4.662759549810687,-7.933582974557764,-6.215210225348591,-0.17313668381949654
dsr_spiral_1280.png,-6.147103021101458,-5.62596081991509,-1.732848905075464,6.734908200664579
dsr_spiral_1281.png,6.01283389779311,7.860714118553556,-8.208847040725898,2.433707315308137
dsr_spiral_1282.png,1.3020271130667922,7.092068213217626,5.540265829179031,2.2819239250569687
dsr_spiral_1283.png,-7.925103109060188,8.770974471733567,-5.217385494263615,-6.538436453152655
dsr_spiral_1284.png,-5.736435276401073,-7.160837605270052,2.298047635540918,7.38895096405615
dsr_spiral_1285.png,-6.335540291047915,3.6882767361574995,3.9041421127844878,-8.717451913241554
dsr_spiral_1286.png,-5.337830673124543,-7.909749688044569,1.3468854928919196,1.912404484214738
dsr_spiral_1287.png,6.872317297305653,-1.901125578357279,3.2332746697453985,0.0425812627765616
dsr_spiral_1288.png,3.9141697691192245,-5.082038610004408,7.4665690945552505,5.128507195491288
dsr_spiral_1289.png,6.725866238746363,1.7416791899252022,-5.96985364331855,0.2804790741245107
dsr_spiral_1290.png,-4.11048450595094,3.730597817681298,-3.928446995542993,8.046220539099892
dsr_spiral_1291.png,-6.9746210729106295,-6.081863268722178,-1.923508180099513,-5.720025045420271
dsr_spiral_1292.png,2.487042269052118,-2.2544301548297057,2.3657941051637223,4.175096110596545
dsr_spiral_1293.png,-8.827226409125988,-6.591822366243592,-2.445645439576894,-2.6810247772187683
dsr_spiral_1294.png,0.7332097503026098,3.8655479183708294,0.06986964458687694,1.0630201621223438
dsr_spiral_1295.png,4.667770791423322,1.8711883153310165,-5.7231542396516435,6.632346742172732
dsr_spiral_1296.png,2.35473660596117,0.886931672504728,6.798478084248824,8.792078213545903
dsr_spiral_1297.png,1.6292822684712167,0.04944867540828035,-8.728524542630975,-8.775505805215838
dsr_spiral_1298.png,-1.0541147893609413,3.9706310616930427,-2.728471705468947,-8.883000645519994
dsr_spiral_1299.png,-4.1003869398865795,-8.224806221317275,2.997551005328736,8.364868328050186
dsr_spiral_1300.png,-3.931612852386502,-6.858276394873906,-5.412228991055461,-3.5068970243935516
dsr_spiral_1301.png,-1.35228242293807,-6.769236661156672,5.974022099130218,4.388953637403224
dsr_spiral_1302.png,-1.4738660450618948,1.7325282216364322,0.23038304146255584,-7.441319545462419
dsr_spiral_1303.png,8.053443163967582,8.274471676479134,1.8799416080511033,5.317277744322119
dsr_spiral_1304.png,0.821854989249946,-3.727173551705695,7.537392499022705,-1.5586548321396174
dsr_spiral_1305.png,-2.0695278060417373,4.485603866437074,8.70857702531801,4.578191288605616
dsr_spiral_1306.png,-7.605642777960924,-6.607453152491739,6.421493864039137,4.967481519251999
dsr_spiral_1307.png,3.865514331437007,6.38828936113811,-6.910568495562584,2.3206339095850765
dsr_spiral_1308.png,1.868022012496935,8.579575330739651,5.888463591073224,2.4933654219690187
dsr_spiral_1309.png,1.3327364075592367,-8.580642022828885,2.880169126450319,7.01924721532863
dsr_spiral_1310.png,-5.494253368076165,-1.434670525061902,-2.039735903703857,-2.2896669710575797
dsr_spiral_1311.png,6.393462596989304,-3.179188080510275,-0.8895830162920966,2.124741560498922
dsr_spiral_1312.png,1.7915343050604466,4.393908271392199,-7.565509907944148,-3.4494029694786645
dsr_spiral_1313.png,8.622363420379354,4.0360798510398865,-5.665141809277757,-2.0160176244763477
dsr_spiral_1314.png,-3.7967660201590787,-7.380415269796613,2.3197683715875765,-3.5236415004466854
dsr_spiral_1315.png,8.656223451433824,-3.4554865638179226,-6.283323916800822,3.2721771938072166
dsr_spiral_1316.png,-8.401476428048575,-3.1868580959821093,-3.477546873759742,-0.33346275882451515
dsr_spiral_1317.png,-5.737810401407614,1.1873216221852978,8.97523895587981,-5.824675054503182
dsr_spiral_1318.png,-4.3972385898939805,-3.7916791248691926,7.907132042534787,-2.3341678205167824
dsr_spiral_1319.png,-4.031164363697785,-4.571411972125533,7.517399435048098,5.10674076886291
dsr_spiral_1320.png,-8.865851279631324,4.674511522422861,-6.301232909905952,4.1349549006511666
dsr_spiral_1321.png,-4.460238796297128,4.159942438682979,3.1971074571560862,-8.23801869719923
dsr_spiral_1322.png,-7.993500718343108,-0.5244144665430444,-3.4470098072474347,-1.9050765984575628
dsr_spiral_1323.png,-5.976580162274689,0.8857700652886003,6.150894799162273,-8.04669939322401
dsr_spiral_1324.png,-1.7425862617124697,0.7318668166488305,-8.30539542273883,7.8757136822121545
dsr_spiral_1325.png,-1.3180658170316697,-6.920440621125491,7.499478535915358,-4.4577326483232715
dsr_spiral_1326.png,0.11610882679491397,-6.085231263654371,-1.5250921354770828,0.8989475102198394
dsr_spiral_1327.png,-6.831690234105556,-5.364685300423803,3.7571543841876327,6.685163987738077
dsr_spiral_1328.png,-8.47955951755118,6.172968075326551,6.682250775875728,-7.4669679706459835
dsr_spiral_1329.png,2.8262522755031227,5.712375094266694,-7.307948695706259,6.848648420327507
dsr_spiral_1330.png,7.145050803148578,-1.009633203705377,5.41805756425885,5.277529317079178
dsr_spiral_1331.png,-3.455803817926051,-6.145633021212234,-0.723935368135237,5.86551037693175
dsr_spiral_1332.png,-5.465572850029058,0.6295663772762001,-1.1747522798309165,-5.597335099078366
dsr_spiral_1333.png,-2.0613988342810883,7.244773624311716,-1.4061763259927949,-7.530161661476452
dsr_spiral_1334.png,1.420011226150839,4.6200276417590285,8.983733548473673,-3.2852268472709856
dsr_spiral_1335.png,2.1219310875927295,2.255936868760383,-3.6102921551493834,-7.902424112547377
dsr_spiral_1336.png,-8.763672749425657,-8.098978035615128,-8.624307984270938,-5.153143888124545
dsr_spiral_1337.png,-1.2081355888496539,1.7113904281852594,-5.85960868802152,3.894402262736987
dsr_spiral_1338.png,-8.866835047850621,-3.1192599641668846,3.408908788752024,8.68253578578554
dsr_spiral_1339.png,-7.377395462883731,3.605061669804339,5.961738928240996,-4.305905301491229
dsr_spiral_1340.png,7.575463792201994,0.8655474323617511,-8.406039505024113,0.8198767337781643
dsr_spiral_1341.png,2.7360503926341764,-0.28146529938881315,1.9299047025972946,2.6840013860891467
dsr_spiral_1342.png,-3.255711571211867,-2.3721848747335095,-8.858632656722245,3.6385291357988425
dsr_spiral_1343.png,-5.324687868313753,-0.20958761781117197,-5.926566970826295,1.09888618407021
dsr_spiral_1344.png,7.221374040321933,4.930608422901784,-0.37324868474468786,2.7112944950770643
dsr_spiral_1345.png,3.031945965786724,-5.556128286367199,3.061083037701195,5.683704405484386
dsr_spiral_1346.png,1.6030994073878286,7.262987453536223,5.607049970297259,-5.107277155853661
dsr_spiral_1347.png,4.643228208166409,3.7498161786133934,-0.2829665009880511,-2.462814477212376
dsr_spiral_1348.png,6.026283264011697,-8.0347212974641,-3.8449062742462132,-5.248043023409346
dsr_spiral_1349.png,4.792349378030851,4.826691489402512,-3.7133602921682165,-4.473697289354146
dsr_spiral_1350.png,-2.0901005953681446,-4.769168080349618,4.394987441199563,-8.410197274924155
dsr_spiral_1351.png,-8.700750648475056,4.577178732540933,-2.7655924013120075,-7.278150103142595
dsr_spiral_1352.png,6.776781956854979,-0.6488099479296565,8.505354766390901,-3.399551450225295
dsr_spiral_1353.png,8.426369156360973,1.9081850508663596,2.935715049960246,2.476543492490528
dsr_spiral_1354.png,-6.6275135589014305,4.928671908659661,-3.7105424067917454,-1.0195340421944419
dsr_spiral_1355.png,0.11423737990756067,8.00896348844967,-8.426707981572624,0.1826903435006777
dsr_spiral_1356.png,-7.285885953734413,6.818815741519916,-5.253911608334542,2.904138319338516
dsr_spiral_1357.png,-6.306666045715124,-4.665794382192546,-5.157443045892123,-1.0428753732069609
dsr_spiral_1358.png,5.452993935528715,6.488369101690807,1.028118555463175,-7.853794379525685
dsr_spiral_1359.png,7.1544751657044685,-5.741723898787764,-2.732366728224104,-7.774141326782616
dsr_spiral_1360.png,4.849083023361995,-1.7995550615094,-7.159697087780449,5.605659572455336
dsr_spiral_1361.png,-0.7686490881612844,-1.6587482572925811,4.5301085628781514,-5.972099695172894
dsr_spiral_1362.png,-4.7613277871640065,-0.5512373519677176,-6.472859349885355,5.323332036419302
dsr_spiral_1363.png,4.809511874942599,-3.5026540636924537,2.549642918705816,1.8024395535700553
dsr_spiral_1364.png,7.34257355932402,-7.682568302204796,-4.058757034037449,6.002096744984662
dsr_spiral_1365.png,-6.148872090429153,2.953563655790621,7.671313185656011,8.111241615678836
dsr_spiral_1366.png,3.685235818864216,-7.676278028029508,3.450606424053529,0.6995434030210479
dsr_spiral_1367.png,-8.062344664710208,-0.2482754735406285,-3.580626482653095,-0.035031085822337715
dsr_spiral_1368.png,3.0462613343076956,2.6921009237317417,5.470761984202708,7.442184843577557
dsr_spiral_1369.png,-1.7378632314424918,-2.2636206661924465,-8.453872119163563,5.8826555300449925
dsr_spiral_1370.png,8.926191968818479,6.880945373515463,0.0732451864176813,-5.00938959135745
dsr_spiral_1371.png,4.267479614663358,-0.05234624290782541,-5.714439101365284,0.6159046604890435
dsr_spiral_1372.png,-6.550855835601626,0.5535640201609162,-0.12371986819789882,-1.0553948403609779
dsr_spiral_1373.png,-2.382150875762555,-1.570728749980968,-5.778044585209502,-0.15960993928629108
dsr_spiral_1374.png,4.365348607296339,-2.381832156975211,-2.8338352664179878,-2.557206833048717
dsr_spiral_1375.png,6.726342219459999,-6.740114821433316,1.227458407161354,1.2245562155073255
dsr_spiral_1376.png,1.2987221981260042,2.7670415100366004,-2.220631113866535,5.971349919601437
dsr_spiral_1377.png,-3.9597115313195825,-8.09018083994049,-1.6066845251694737,-8.211982090376965
dsr_spiral_1378.png,-7.155050190482536,-7.30044527485721,1.7825339332779038,1.9407084353375819
dsr_spiral_1379.png,2.561658725710787,-8.092931562693511,0.4618816113697264,-8.394422991040921
dsr_spiral_1380.png,0.651659434973789,-6.881464665705877,8.023224473253137,-6.6275372841089215
dsr_spiral_1381.png,-8.921690641931308,0.6511936461486787,-7.269139686585719,0.57474909208592
dsr_spiral_1382.png,-2.0069036675456955,0.33307908909701744,0.6264468330844295,-2.9169131196206584
dsr_spiral_1383.png,-4.698335145926325,0.09020649752140208,-6.0238584717719075,3.4696315059988265
dsr_spiral_1384.png,-5.7320601762185355,-2.488006596952321,-3.683567455475246,7.928286194305414
dsr_spiral_1385.png,4.564561734283929,2.5324896879531043,-2.8671413160929067,2.028900365436529
dsr_spiral_1386.png,-1.7308884889618135,-1.2220304849358614,-2.653517113051418,-0.2613109166598786
dsr_spiral_1387.png,3.9205154476947524,-0.532624340781302,3.7669702986311293,-7.590403298999138
dsr_spiral_1388.png,-0.048492028208897864,0.8757101633143112,0.28761252648116553,-0.1602999122657014
dsr_spiral_1389.png,-4.598248210759013,5.747655085452118,6.916814734504522,-5.078697503900569
dsr_spiral_1390.png,4.954939397784573,2.137372750812199,-0.20047020160073714,-2.3358281606201983
dsr_spiral_1391.png,-6.26425453026793,3.422359102192903,3.6179399096895217,-8.403400241689951
dsr_spiral_1392.png,0.49888501977509137,-6.4693522262832595,3.4382982352524767,-7.755586996205878
dsr_spiral_1393.png,-5.279394965475669,5.253006106051124,-0.465739448684948,3.9809510910190866
dsr_spiral_1394.png,-5.706126987446579,1.2427328503571893,-8.021423465120865,3.230789930922901
dsr_spiral_1395.png,-3.007576328228744,-4.698572643565532,2.589674369059244,6.295091159400993
dsr_spiral_1396.png,-6.5254496111600595,4.424004610918427,6.134568003198554,-1.4105822429154697
dsr_spiral_1397.png,5.243357443665316,-8.271422834168296,1.6040875089818343,-5.3769855474683945
dsr_spiral_1398.png,6.1542870496483655,-0.8207087101429096,-4.215491084235958,3.7216360796052594
dsr_spiral_1399.png,-3.654987081705526,7.053806714118593,-1.74067837000422,-0.4754092240830303
dsr_spiral_1400.png,1.2686152999550746,0.5262957154725001,7.898797173765399,5.244986602363401
dsr_spiral_1401.png,1.7290783257739477,4.986181692135103,0.7213170831267952,0.7148957726692515
dsr_spiral_1402.png,-3.6226053990636515,0.7027679368536734,6.832398560161815,-1.189119234360093
dsr_spiral_1403.png,1.5605594118685602,1.3269799564651183,3.0732630710982374,8.012891934096189
dsr_spiral_1404.png,8.789647408891437,-4.0664895875403,-0.7054560410654425,-3.398830295629395
dsr_spiral_1405.png,3.235344165843694,-5.779462855708655,0.3616978658277681,5.914572540783023
dsr_spiral_1406.png,3.493719643981173,5.658459121564723,-1.4367020207082302,-1.7317520897217618
dsr_spiral_1407.png,0.6098071468337629,-5.194101872051337,-8.560382487453488,2.517471891016223
dsr_spiral_1408.png,-8.799296140215919,-2.4831034458901415,2.3741943617747907,8.380179222754222
dsr_spiral_1409.png,0.2154338615717073,-0.40089284513940804,1.75254900970317,3.4412358454310485
dsr_spiral_1410.png,8.162917445173221,-8.59723434969266,0.5201128109128685,-7.121658479458127
dsr_spiral_1411.png,-2.8295503343999675,-6.510056679009866,-1.2115715693994282,-7.921885652646482
dsr_spiral_1412.png,1.8338546114640817,-2.398190432375211,5.431655924811402,1.2327105856405183
dsr_spiral_1413.png,-3.7788498329835676,0.5204175238371835,-0.9774425228727104,0.812056697596848
dsr_spiral_1414.png,-4.127827105200845,4.22309246311209,1.536526452838384,4.929901563845711
dsr_spiral_1415.png,1.1478913630423264,-2.03753703232708,-7.274433383170853,-5.50781568494029
dsr_spiral_1416.png,-2.0107859791202243,0.267741430894084,-7.201838020536805,-4.579368094419847
dsr_spiral_1417.png,-8.081048327963146,-4.8466719289364635,5.923731355328936,-5.929629661920093
dsr_spiral_1418.png,-0.6346635658604622,6.973780285522869,-4.931420794628195,-1.9721976047394287
dsr_spiral_1419.png,1.7330177977876993,5.323359965011697,7.337670619178148,6.900629456204609
dsr_spiral_1420.png,8.598251571501805,7.537402640060666,0.735383650037166,-2.5051718727359713
dsr_spiral_1421.png,8.077747388937741,-1.8034051777232438,-8.868778468895425,2.666471060563964
dsr_spiral_1422.png,-1.522844780448244,0.41135713246227823,4.409205084361254,2.036583787459408
dsr_spiral_1423.png,0.5637905001814119,6.788776619900137,-4.459433705122969,2.0679621183478787
dsr_spiral_1424.png,1.8013853697500046,6.259748829742936,1.6964325936504583,0.25699143416836456
dsr_spiral_1425.png,-7.30448997906398,-3.523675827326514,-3.2896203876732333,-7.747545990496873
dsr_spiral_1426.png,-0.068031228726678,-7.522158870631912,-1.8463436886866456,4.469356201316426
dsr_spiral_1427.png,-1.8199876212773356,2.5943955519698623,2.8795885870296374,-5.639056220633277
dsr_spiral_1428.png,8.472048898538556,-3.6485743737722736,6.557819817679341,-7.7461512476043985
dsr_spiral_1429.png,-7.5664332041235935,7.902751070447039,-2.0578704070845086,5.293357402882684
dsr_spiral_1430.png,-0.38569714040675507,7.222315321362824,-2.847074062405863,8.41010723094585
dsr_spiral_1431.png,5.138062289416553,-0.22967099111234468,-1.693513546465491,3.4597117571298828
dsr_spiral_1432.png,5.143937433306855,-2.4917952196696795,2.8068132261311796,8.216016147384604
dsr_spiral_1433.png,7.444297487949289,8.82690469549781,0.31139027608267966,1.839620844094192
dsr_spiral_1434.png,-7.250174032218626,1.4068150380277054,4.768950226063067,7.91106073165723
dsr_spiral_1435.png,-0.09467503142541922,4.377938417182834,-0.21836883510266958,-5.238325120171348
dsr_spiral_1436.png,-1.1991877415733363,-4.490597092594953,-0.7168383869552315,5.382092301531914
dsr_spiral_1437.png,4.968380592673082,-6.870809039330898,4.366755803957535,-4.336250737305871
dsr_spiral_1438.png,-5.0942777704755775,3.266821525590437,-6.336165323386295,-8.144120975291212
dsr_spiral_1439.png,-5.733336386437311,-3.588092312559759,3.010154975526305,-3.3386095475035633
dsr_spiral_1440.png,5.367637951501518,-2.3717077139240255,6.565173135979519,-7.9359317677592465
dsr_spiral_1441.png,-3.0163528540092397,-2.570871633810844,-6.083332821417921,-2.326333916208606
dsr_spiral_1442.png,-6.510775018602807,3.0537436739520345,6.332720086312509,3.4441303888027015
dsr_spiral_1443.png,3.7086748917937182,3.2488939821100438,1.7931710501345215,2.274763818839629
dsr_spiral_1444.png,2.0282186564349125,8.743190911115544,-3.649622531980108,-6.958613766739166
dsr_spiral_1445.png,0.045612877593733,7.955935946484093,-0.3782440354215879,7.190123500788182
dsr_spiral_1446.png,7.627253592050785,6.63955427087355,2.5481371762089573,3.433629289155723
dsr_spiral_1447.png,1.7131244927336127,-7.513227528016355,4.757263477868518,4.316296086975454
dsr_spiral_1448.png,-4.582535638255985,2.4083208883643774,4.122692112525883,-5.390647827032106
dsr_spiral_1449.png,-0.9893929654523159,-5.5516040409624035,0.9947026447072727,-5.121097592282545
dsr_spiral_1450.png,-3.982920294379934,-7.351158002793769,3.885281028500266,-3.188499197046358
dsr_spiral_1451.png,-2.3479495808942925,-2.623380120100741,0.9572142059741964,3.6840065625850418
dsr_spiral_1452.png,4.062435344231844,3.2161245272977474,7.5759035904207614,-7.737325531042649
dsr_spiral_1453.png,3.70720750904516,3.7241672562645967,8.453166370319224,1.029393389798873
dsr_spiral_1454.png,6.383328656924306,2.9466512192419554,2.7278347901652786,5.129690157016546
dsr_spiral_1455.png,-8.302182031129957,2.075324893268009,-1.9606833210872185,1.3691003491495906
dsr_spiral_1456.png,-1.0199559806487253,4.799013080087342,7.949435003551702,3.468155814512894
dsr_spiral_1457.png,-4.389942996458192,1.9446786147757695,3.0604074855104813,-3.7169536708086035
dsr_spiral_1458.png,-3.700294171300218,2.9024085590226516,8.143447430520279,-0.6599966299546782
dsr_spiral_1459.png,5.017725086032421,0.08270903465260204,-3.8426105091857634,-3.254435723205461
dsr_spiral_1460.png,-8.827950094580817,4.892241167876705,-1.0796304560131738,-8.88359564372838
dsr_spiral_1461.png,4.815876166532689,5.874678796652754,-1.0501322470876495,-8.85392808054512
dsr_spiral_1462.png,-7.441388398236589,-7.146289500044779,-3.6261077406121194,-5.560966988844787
dsr_spiral_1463.png,-8.625457725493995,-8.618863998840114,3.2227763180245876,-4.2227990645060025
dsr_spiral_1464.png,-0.5156451081179778,5.606459929914513,-6.92387921212422,3.053751477713222
dsr_spiral_1465.png,7.10063486221998,3.6616408894156223,-1.4147700934785483,-2.673410891799211
dsr_spiral_1466.png,-7.476867573037879,-2.0038813588384343,-6.418862032688582,-0.9793509725725009
dsr_spiral_1467.png,1.658105774985927,-3.070931264033728,-7.139703127749224,6.661478259120122
dsr_spiral_1468.png,4.532763774571997,2.264494066749272,3.7806546601264124,-1.5967410079116053
dsr_spiral_1469.png,0.053048664813005075,-2.9410086586918682,3.749508505040346,3.847916409686057
dsr_spiral_1470.png,-1.1628948859989698,-3.6077812734789827,8.687611814684683,0.3762767407727239
dsr_spiral_1471.png,6.132629798500975,3.8173497668103042,3.362928732809584,4.674235941451052
dsr_spiral_1472.png,8.569055011351494,-6.471158133325066,4.213982064713017,5.867594702426127
dsr_spiral_1473.png,-2.8808664966471484,-1.2028431752448334,7.763255172496777,-4.189604105337365
dsr_spiral_1474.png,-6.6262294467402825,8.821146429660864,-5.336445549274059,4.631244870224537
dsr_spiral_1475.png,-5.993499194251822,3.124170617942049,-8.161282623424922,-0.17351321346554016
dsr_spiral_1476.png,1.0709733479480477,-0.7512899153612516,-0.5070508619833412,2.8604706881627315
dsr_spiral_1477.png,7.729888906660996,-1.8399317665739527,-8.114453199378534,-8.779258872170976
dsr_spiral_1478.png,4.940217019290298,-4.707299583520353,8.563410844267331,-2.242023455910214
dsr_spiral_1479.png,-0.6185549938029844,6.536613701252403,0.23978590511819675,1.6725841166066786
dsr_spiral_1480.png,0.46975894060804535,3.5058052743269386,7.078720300323845,-1.76886711411575
dsr_spiral_1481.png,-2.3193784654685192,-8.57569069980311,1.2151695371670108,-7.407529864973357
dsr_spiral_1482.png,-8.524875162990794,6.78939319392582,-0.6333196954164375,6.869710758395447
dsr_spiral_1483.png,6.33091196925378,-6.137731723084527,6.962251859194582,-6.683728362671005
dsr_spiral_1484.png,-8.716590628238201,1.6116415995748987,1.9905983031070846,3.086956988492945
dsr_spiral_1485.png,-8.236808832812171,5.834808260117228,-3.911176112630563,8.005766381527149
dsr_spiral_1486.png,-6.836384641328862,-3.62689238857664,-4.736329930110509,7.7553611609220106
dsr_spiral_1487.png,5.411311452722526,-8.57316415764161,-7.500967862349895,8.425167022208441
dsr_spiral_1488.png,-6.677253698236814,-2.148194665012147,-8.822369324023391,7.642612450278392
dsr_spiral_1489.png,-2.0967552676123073,1.8394884565750242,0.41116326529987646,7.031692191660081
dsr_spiral_1490.png,4.999085419958327,-2.441445056078913,-6.6372430291297775,-7.308210082118298
dsr_spiral_1491.png,-2.9014768573045613,3.5308590328496727,1.0624573104272752,7.588705673481169
dsr_spiral_1492.png,3.113934099178419,-3.1999578863682245,4.16417307667505,0.891953441737968
dsr_spiral_1493.png,8.105285783421088,-5.008742063559831,5.105634530672145,0.5374163847684557
dsr_spiral_1494.png,0.31257547382003104,7.332031478713603,0.45250759156484577,3.859658941281255
dsr_spiral_1495.png,-2.4162587264328366,0.6135947551951197,3.8924969008177968,-5.647907403300879
dsr_spiral_1496.png,-7.09388341984476,-7.283600290168378,6.204009946961472,0.9267849631123397
dsr_spiral_1497.png,-8.478356323540563,5.715266801122848,0.8939544449439278,-7.065838496530923
dsr_spiral_1498.png,5.45829823692516,-0.6659263687795693,0.09714721635134538,-4.009556028554326
dsr_spiral_1499.png,3.2589560360077865,-2.122557360055951,7.781021078216487,-4.9337710984607
dsr_spiral_1500.png,-5.638031020708737,0.8510707700519884,-6.14605825834816,-6.055587498576603
dsr_spiral_1501.png,-1.1474684171591187,-1.8475115123358874,-4.028862734953301,6.892720413782996
dsr_spiral_1502.png,4.8672214090327195,-4.226181041682353,4.595817855358998,8.186934344058322
dsr_spiral_1503.png,4.2060018066288265,-4.926156854587702,6.675006482579631,2.2534665625355466
dsr_spiral_1504.png,0.1600171595470279,2.099336832440949,-0.01192630669564032,7.5910093727632315
dsr_spiral_1505.png,2.382016871124966,5.063611114790133,-2.2926724168944226,-8.764824548151973
dsr_spiral_1506.png,-1.191182752357384,7.610950579698919,6.361242147110245,4.955858584786842
dsr_spiral_1507.png,-5.42692221604546,-5.263980289109609,-6.711880200879557,0.9494822264397449
dsr_spiral_1508.png,-4.982802810729768,6.305677830454163,-1.870409399510839,8.061968256842206
dsr_spiral_1509.png,-7.406100069826734,4.619745658461872,4.2059998653719965,8.524469331643882
dsr_spiral_1510.png,0.4213233701297323,-0.5033171369480947,-4.712314231072597,1.5163530051149188
dsr_spiral_1511.png,3.204450234379131,1.6037784744249404,-3.274464410437412,3.8751892846784806
dsr_spiral_1512.png,-0.20328290083254075,0.11779438116600183,-5.996504243510566,0.4233333561540853
