
ss_spiral_0_0_0.png,-8.792948031635792,-8.758791588361234
ss_spiral_0_1_1.png,-9,-8.122857078774585
ss_spiral_0_2_2.png,-8.704724744447798,-7.310566559565348
ss_spiral_0_3_3.png,-8.679572955644213,-6.707347023243913
ss_spiral_0_4_4.png,-8.599646198261736,-5.343561435294572
ss_spiral_0_5_5.png,-8.639955514554352,-4.373362998957473
ss_spiral_0_6_6.png,-9,-3.79123373668019
ss_spiral_0_7_7.png,-9,-3.072922129990184
ss_spiral_0_8_8.png,-8.835562435502604,-2.2002157585355424
ss_spiral_0_9_9.png,-8.749647467881003,-0.9855042178131217
ss_spiral_0_10_10.png,-8.824137435860461,-0.1365253515785269
ss_spiral_0_11_11.png,-9,0.4225358572968103
ss_spiral_0_12_12.png,-8.960371362384041,1.3609414938937139
ss_spiral_0_13_13.png,-8.673678614953356,2.3504969786983465
ss_spiral_0_14_14.png,-8.740167471585467,3.181240829189676
ss_spiral_0_15_15.png,-8.863864298168282,3.43086191389098
ss_spiral_0_16_16.png,-8.831819274306946,4.514653974315728
ss_spiral_0_17_17.png,-9,5.726890762238539
ss_spiral_0_18_18.png,-8.789725503503432,6.786427088865572
ss_spiral_0_19_19.png,-9,6.911560292274434
ss_spiral_0_20_20.png,-9,8.43499650301399
ss_spiral_0_21_21.png,-9,8.946773451451651
ss_spiral_1_0_22.png,-8.219594835577398,-8.78036110116644
ss_spiral_1_1_23.png,-7.733165513264595,-7.950749914359527
ss_spiral_1_2_24.png,-8.199190454900716,-7.382961772954311
ss_spiral_1_3_25.png,-7.7745977019958,-6.839071862698095
ss_spiral_1_4_26.png,-7.721263703041402,-5.366328503732464
ss_spiral_1_5_27.png,-7.92197062313156,-4.59977811843351
ss_spiral_1_6_28.png,-7.962234207850163,-3.5050365665232714
ss_spiral_1_7_29.png,-8.101609337213862,-2.787730027506786
ss_spiral_1_8_30.png,-8.499126439308538,-2.398113285465147
ss_spiral_1_9_31.png,-8.533140081544312,-1.5823883605472189
ss_spiral_1_10_32.png,-8.525476928872628,-0.2593875429857652
ss_spiral_1_11_33.png,-7.9131911563795265,0.07032132788706391
ss_spiral_1_12_34.png,-7.90017752818787,1.2049682938510577
ss_spiral_1_13_35.png,-7.888843242808998,2.5514373543356834
ss_spiral_1_14_36.png,-7.976132862191562,2.8881048349253984
ss_spiral_1_15_37.png,-8.45342731277532,3.7842542009944777
ss_spiral_1_16_38.png,-8.125612655068595,4.487493389730892
ss_spiral_1_17_39.png,-8.049192740584225,5.440900145415135
ss_spiral_1_18_40.png,-8.44762171341575,6.241427687276806
ss_spiral_1_19_41.png,-8.461583275012277,7.6726183047269405
ss_spiral_1_20_42.png,-8.116808487329115,8.553380629610313
ss_spiral_1_21_43.png,-8.408568693085508,9
ss_spiral_2_0_44.png,-7.589313012663212,-8.6740492710239
ss_spiral_2_1_45.png,-7.416069754424427,-8.306677308830876
ss_spiral_2_2_46.png,-7.427365235845977,-6.9376590817108905
ss_spiral_2_3_47.png,-7.520220996767648,-6.279548017141178
ss_spiral_2_4_48.png,-7.073598189517191,-5.876334901190067
ss_spiral_2_5_49.png,-7.093462377010547,-4.892929846372755
ss_spiral_2_6_50.png,-7.020744430459935,-3.539612304448773
ss_spiral_2_7_51.png,-6.945829670070633,-3.415827872467998
ss_spiral_2_8_52.png,-6.896113899866909,-2.5593929119327194
ss_spiral_2_9_53.png,-7.58202694645861,-1.229118759385547
ss_spiral_2_10_54.png,-7.558320077796342,-0.7859559651017384
ss_spiral_2_11_55.png,-7.634548663297989,0.5537262647094046
ss_spiral_2_12_56.png,-7.291683447636866,1.5930836921974738
ss_spiral_2_13_57.png,-7.652625056570705,2.3386614984715663
ss_spiral_2_14_58.png,-6.988272187496265,3.273883235184632
ss_spiral_2_15_59.png,-7.073725954494627,3.4988302117552
ss_spiral_2_16_60.png,-7.27970300370561,4.575199645589428
ss_spiral_2_17_61.png,-7.709449703226155,5.769775277789754
ss_spiral_2_18_62.png,-6.896418690147983,6.696312630156329
ss_spiral_2_19_63.png,-7.433467464203777,7.264691911085939
ss_spiral_2_20_64.png,-6.899381386512414,8.323959709366965
ss_spiral_2_21_65.png,-6.9684312072688686,9
ss_spiral_3_0_66.png,-6.77874030339694,-8.580940341333957
ss_spiral_3_1_67.png,-6.7125922123467685,-8.437439049035893
ss_spiral_3_2_68.png,-6.41278935474417,-7.51812031448954
ss_spiral_3_3_69.png,-6.041011441719521,-6.281037110744308
ss_spiral_3_4_70.png,-6.043982196290518,-5.632613160839643
ss_spiral_3_5_71.png,-6.672496684960734,-5.072666179778458
ss_spiral_3_6_72.png,-6.269097380108107,-3.4494209407420557
ss_spiral_3_6_73.png,-6.7298380650297105,-3.7996667242419617
ss_spiral_3_7_74.png,-6.578040470427522,-3.1168661128709925
ss_spiral_3_8_75.png,-6.191065110750468,-1.7675814219688146
ss_spiral_3_9_76.png,-6.82248301862725,-1.6246819773372119
ss_spiral_3_10_77.png,-6.114921864921657,-0.3320964693194192
ss_spiral_3_11_78.png,-6.255092520057108,0.25176518430873274
ss_spiral_3_12_79.png,-6.492059172523068,1.586417519367683
ss_spiral_3_13_80.png,-6.411626910361767,1.903082672416959
ss_spiral_3_14_81.png,-6.8183743946711495,3.411424657505578
ss_spiral_3_15_82.png,-6.100264852365422,4.064879771429418
ss_spiral_3_16_83.png,-6.137967896554961,5.010298402082026
ss_spiral_3_17_84.png,-6.788332309668571,5.52753343159939
ss_spiral_3_18_85.png,-6.5479398215865485,6.227906451770259
ss_spiral_3_19_86.png,-6.061694303124371,7.045810210630117
ss_spiral_3_20_87.png,-6.024881735205164,8.387437438569076
ss_spiral_3_21_88.png,-6.147599382539592,8.928286666269196
ss_spiral_4_0_89.png,-5.461743458816042,-9
ss_spiral_4_1_90.png,-5.866142852234159,-8.238408577429286
ss_spiral_4_2_91.png,-5.867820004644481,-7.464904655457038
ss_spiral_4_3_92.png,-5.83789703740823,-6.799179166837314
ss_spiral_4_4_93.png,-5.9159985871665635,-5.702095892008593
ss_spiral_4_5_94.png,-5.64600839813369,-4.819174292272267
ss_spiral_4_6_95.png,-5.614537782604077,-3.8967134845890667
ss_spiral_4_7_96.png,-5.727488055679839,-2.623504873790862
ss_spiral_4_8_97.png,-5.598616916645577,-2.4492961205104042
ss_spiral_4_9_98.png,-5.253219289971113,-1.1681659523281618
ss_spiral_4_10_99.png,-5.551113068698646,-0.8322360485080582
ss_spiral_4_11_100.png,-5.286959686553421,0.16116847855569594
ss_spiral_4_12_101.png,-5.618915786696627,1.1298539980321434
ss_spiral_4_13_102.png,-5.579784129309804,1.9270008594299006
ss_spiral_4_14_103.png,-5.496706352763874,3.235042812791856
ss_spiral_4_15_104.png,-5.197114955901375,3.466369933884845
ss_spiral_4_16_105.png,-5.317652395567685,4.959760685170877
ss_spiral_4_17_106.png,-5.1680826338092505,5.5930093298261
ss_spiral_4_18_107.png,-5.862761534097874,6.818941637680431
ss_spiral_4_19_108.png,-5.816671959677773,7.017682739385565
ss_spiral_4_20_109.png,-5.919333747303238,7.828780090117779
ss_spiral_4_21_110.png,-5.516229824004577,9
ss_spiral_5_0_111.png,-4.758028188774943,-9
ss_spiral_5_1_112.png,-4.573741440117906,-8.028970874022704
ss_spiral_5_2_113.png,-4.809451388282054,-7.6982999495505995
ss_spiral_5_3_114.png,-4.755753560287365,-6.440004103366811
ss_spiral_5_4_115.png,-5.093329145988819,-5.513706247182769
ss_spiral_5_5_116.png,-4.377433938190646,-4.880299116622254
ss_spiral_5_6_117.png,-4.583094076626089,-3.8628749155626037
ss_spiral_5_7_118.png,-4.643141823759748,-2.5890020140560432
ss_spiral_5_8_119.png,-4.844746024288342,-2.3333648675669485
ss_spiral_5_9_120.png,-4.9532109559969255,-0.9995342280782527
ss_spiral_5_10_121.png,-4.432443784006484,-0.2531954401381347
ss_spiral_5_11_122.png,-4.370701058733691,0.6996666735298038
ss_spiral_5_12_123.png,-4.5548364511800665,1.5896884322904354
ss_spiral_5_13_124.png,-4.7147412164019595,2.427030908893738
ss_spiral_5_14_125.png,-4.919452798464692,3.2508705159010494
ss_spiral_5_15_126.png,-4.471999031054545,3.443023504271061
ss_spiral_5_16_127.png,-5.049008007033538,4.351791774972628
ss_spiral_5_17_128.png,-4.89753855059124,5.90929755003961
ss_spiral_5_18_129.png,-4.31748497276403,6.5241016937699685
ss_spiral_5_19_130.png,-4.826455028915806,7.1582101171260275
ss_spiral_5_20_131.png,-5.096001706404555,7.88365100324638
ss_spiral_5_21_132.png,-4.536817033935208,9
ss_spiral_6_0_133.png,-4.206702195819599,-8.825645258394797
ss_spiral_6_1_134.png,-3.6798609562143096,-8.487857830007712
ss_spiral_6_2_135.png,-3.4599116080842576,-7.348949840369973
ss_spiral_6_3_136.png,-3.4783102630059415,-6.216290348991448
ss_spiral_6_4_137.png,-3.7881086775021733,-5.418198152897925
ss_spiral_6_5_138.png,-3.686914265028855,-4.428525651548832
ss_spiral_6_6_139.png,-3.5997686562515256,-3.7491480371389785
ss_spiral_6_7_140.png,-3.5141367433259463,-3.205959197942814
ss_spiral_6_8_141.png,-3.6607552372576317,-2.50721137884382
ss_spiral_6_9_142.png,-4.189087308230709,-1.3074328314546306
ss_spiral_6_10_143.png,-4.012049518400234,-0.1735695019096259
ss_spiral_6_11_144.png,-4.10271200178189,0.24086905094231698
ss_spiral_6_12_145.png,-3.464677507094747,0.9031682534279195
ss_spiral_6_13_146.png,-4.213869641755685,2.004009957240134
ss_spiral_6_14_147.png,-3.913269752646096,2.97174497403299
ss_spiral_6_15_148.png,-3.992078251666919,3.638844784654653
ss_spiral_6_16_149.png,-3.566984371808162,4.934231811459946
ss_spiral_6_17_150.png,-3.829834507229398,5.204131517274211
ss_spiral_6_18_151.png,-4.0742993229621245,6.791132983182757
ss_spiral_6_19_152.png,-3.769101574294292,7.535791935180157
ss_spiral_6_20_153.png,-3.7418710208269412,8.509780430494638
ss_spiral_6_21_154.png,-3.481012757526485,8.88592557520495
ss_spiral_7_0_155.png,-2.983337994703257,-8.662214030103568
ss_spiral_7_1_156.png,-2.8590993325338023,-8.293826059489808
ss_spiral_7_2_157.png,-3.1019275954454115,-7.3676498949781895
ss_spiral_7_3_158.png,-2.9818481345499364,-6.296398728846191
ss_spiral_7_4_159.png,-3.2993276825260276,-5.9156315455080755
ss_spiral_7_5_160.png,-3.0376543528709936,-5.091660737240161
ss_spiral_7_6_161.png,-2.655711331108025,-3.57449642552711
ss_spiral_7_7_162.png,-3.020272737589266,-3.4074051041742717
ss_spiral_7_8_163.png,-2.662215318198926,-2.3846719839362476
ss_spiral_7_9_164.png,-2.8836284742410743,-1.5890483834747569
ss_spiral_7_10_165.png,-3.409664259965458,-0.6954363605671093
ss_spiral_7_11_166.png,-3.223933141203748,0.2397595527337617
ss_spiral_7_12_167.png,-3.3444042952464725,1.6562077713289152
ss_spiral_7_13_168.png,-2.662143813057786,2.1936564506397422
ss_spiral_7_14_169.png,-2.9692766358432348,2.803566145338871
ss_spiral_7_15_170.png,-3.2556531022253266,3.625809508836087
ss_spiral_7_16_171.png,-3.0171343413994087,4.860122093055216
ss_spiral_7_17_172.png,-3.4155043866760186,5.427514265930369
ss_spiral_7_18_173.png,-3.0919454270923263,6.61781574799732
ss_spiral_7_19_174.png,-2.6531578233513273,7.508365680478506
ss_spiral_7_20_175.png,-3.03588155499092,8.53882770045278
ss_spiral_7_21_176.png,-2.6489423682824973,8.94890190888554
ss_spiral_8_0_177.png,-2.102985980750988,-9
ss_spiral_8_1_178.png,-1.9527106094044027,-8.529236598586811
ss_spiral_8_2_179.png,-1.935090821321206,-7.563583576211723
ss_spiral_8_3_180.png,-2.3485155352429117,-6.643143515888402
ss_spiral_8_4_181.png,-2.56211247379462,-5.3038222463467495
ss_spiral_8_5_182.png,-1.8428326437218174,-4.994981940013722
ss_spiral_8_6_183.png,-2.264892769835847,-3.758337547019479
ss_spiral_8_7_184.png,-1.9282132586241747,-3.153511608855264
ss_spiral_8_8_185.png,-2.1827190132964813,-2.4494074355675854
ss_spiral_8_9_186.png,-2.318560481385024,-1.4572070937224406
ss_spiral_8_10_187.png,-2.289339800858981,-0.480330186577559
ss_spiral_8_11_188.png,-2.2666952674485477,0.7602136614598505
ss_spiral_8_12_189.png,-1.729266844298777,1.512936334914838
ss_spiral_8_13_190.png,-2.0674378961913793,1.8206883469262367
ss_spiral_8_14_191.png,-1.9065117687334643,3.416705258207955
ss_spiral_8_15_192.png,-2.4322400323601148,4.25918073706945
ss_spiral_8_16_193.png,-1.756127566339647,4.58386528737798
ss_spiral_8_17_194.png,-1.897426367193561,5.566920329686573
ss_spiral_8_18_195.png,-2.551167227128815,6.2234447944418285
ss_spiral_8_19_196.png,-1.862254139628938,7.252162163016577
ss_spiral_8_20_197.png,-1.9022867974826176,7.969464898772092
ss_spiral_8_21_198.png,-2.301480222725019,9
ss_spiral_9_0_199.png,-1.0717959446092047,-8.578541972997261
ss_spiral_9_1_200.png,-1.4936587827594132,-7.86132121493359
ss_spiral_9_2_201.png,-1.5889371355157418,-7.6523903079716185
ss_spiral_9_3_202.png,-1.5074014688826167,-6.129865743820392
ss_spiral_9_4_203.png,-1.0630612552240788,-5.524668702568118
ss_spiral_9_5_204.png,-1.3593500427030885,-4.722093456740591
ss_spiral_9_6_205.png,-1.699347471966822,-3.8434116276375536
ss_spiral_9_7_206.png,-1.6294848306565912,-3.15738847455741
ss_spiral_9_8_207.png,-1.6488822662687257,-2.2036228450000297
ss_spiral_9_9_208.png,-1.4139076732503701,-1.1175506313950825
ss_spiral_9_10_209.png,-1.5299305679183237,-0.6500742887417669
ss_spiral_9_11_210.png,-1.4428487040109563,0.1750641642811533
ss_spiral_9_12_211.png,-1.4159424560018659,1.6553204573397198
ss_spiral_9_13_212.png,-1.3929909985995133,1.8392684909142565
ss_spiral_9_14_213.png,-1.6584309534148243,3.339540353857251
ss_spiral_9_15_214.png,-1.658439265216066,4.163936145651156
ss_spiral_9_16_215.png,-1.7064006530821858,4.870330661664835
ss_spiral_9_17_216.png,-1.663774876925622,5.957001580721192
ss_spiral_9_18_217.png,-1.1407766989693446,6.7244257569017325
ss_spiral_9_19_218.png,-1.082964618385154,7.547797904138684
ss_spiral_9_20_219.png,-1.4310295182407078,7.9824702570057715
ss_spiral_9_21_220.png,-0.9482575348789293,9
ss_spiral_10_0_221.png,-0.7255351351167025,-8.617955301732158
ss_spiral_10_1_222.png,-0.4145353250134513,-7.749389278549962
ss_spiral_10_2_223.png,-0.7633700847877459,-6.978826387187762
ss_spiral_10_3_224.png,-0.16285858226598765,-6.724610711654607
ss_spiral_10_4_225.png,-0.559038359257585,-5.848591286914557
ss_spiral_10_5_226.png,-0.35121054371158883,-4.886367008023365
ss_spiral_10_6_227.png,-0.7330249491387175,-4.077560368647249
ss_spiral_10_7_228.png,-0.3202687848789593,-2.6381146957233628
ss_spiral_10_8_229.png,-0.4266014551204224,-2.1150186916241713
ss_spiral_10_9_230.png,-0.1937874280883008,-1.4755986929550795
ss_spiral_10_10_231.png,-0.06505015295189581,-0.42333306578608604
ss_spiral_10_11_232.png,-0.060135674047431864,0.8561920391826949
ss_spiral_10_12_233.png,-0.148508822674909,1.4321007638361087
ss_spiral_10_13_234.png,-0.3205463522182321,2.5327213751507007
ss_spiral_10_14_235.png,-0.59516272463132,3.1277003043124236
ss_spiral_10_15_236.png,-0.8564314752251703,3.6097360902711775
ss_spiral_10_16_237.png,-0.5362702331060336,4.658428257970319
ss_spiral_10_17_238.png,-0.12277449299749571,5.291381756021958
ss_spiral_10_18_239.png,-0.20019367787716308,6.662806248224417
ss_spiral_10_19_240.png,-0.8275161674384308,7.69829947684867
ss_spiral_10_20_241.png,-0.8088794016340504,8.07045939989994
ss_spiral_10_21_242.png,-0.44659257879296327,8.835260742405435
ss_spiral_11_0_243.png,0.6572553823711131,-8.64494226712657
ss_spiral_11_1_244.png,0.6700896872568187,-8.039604963387543
ss_spiral_11_2_245.png,0.019709882138126966,-7.449446521117334
ss_spiral_11_3_246.png,0.11907709500843922,-6.760391319761423
ss_spiral_11_4_247.png,0.4141681062586381,-5.355985189326939
ss_spiral_11_5_248.png,0.270585876744354,-4.733523832935626
ss_spiral_11_6_249.png,0.47054288486893475,-3.731307736294231
ss_spiral_11_7_250.png,0.41049897398852264,-3.184587805329724
ss_spiral_11_8_251.png,0.5952903599487076,-2.0241189275980185
ss_spiral_11_9_252.png,0.058685586234738074,-1.4169966802368732
ss_spiral_11_10_253.png,0.35953200467127905,-0.6952341748895648
ss_spiral_11_11_254.png,0.6634228648974758,0.39450022457678824
ss_spiral_11_12_255.png,0.7805801447590774,1.613864725170305
ss_spiral_11_13_256.png,0.14140349416759235,2.2894356630550767
ss_spiral_11_14_257.png,0.3153998165376277,3.387289551992447
ss_spiral_11_15_258.png,0.09036832205221806,4.139226070917593
ss_spiral_11_16_259.png,0.14411667676006434,4.459096337771213
ss_spiral_11_17_260.png,0.3279612750258948,5.701113478044001
ss_spiral_11_18_261.png,0.544524201054309,6.841215860582166
ss_spiral_11_19_262.png,0.023475369008874147,7.690414043783059
ss_spiral_11_20_263.png,0.6250839669057551,8.544082610006697
ss_spiral_11_21_264.png,0.545253363690694,9
ss_spiral_12_0_265.png,1.38359686835516,-9
ss_spiral_12_1_266.png,1.0623788308842745,-8.34715461633713
ss_spiral_12_2_267.png,1.4628402970190424,-6.946142715503075
ss_spiral_12_3_268.png,1.664169442588468,-6.176834544498054
ss_spiral_12_4_269.png,0.9789497901891243,-5.580232268955317
ss_spiral_12_5_270.png,0.8641752588605675,-5.113316846520039
ss_spiral_12_6_271.png,1.4764754657141805,-3.611223261240384
ss_spiral_12_7_272.png,1.3377418911075858,-2.9750228695537846
ss_spiral_12_8_273.png,1.2469178951222066,-2.0110950707181656
ss_spiral_12_9_274.png,1.245143971906251,-1.5034252915330601
ss_spiral_12_10_275.png,1.0434478276357,-0.7640889900197183
ss_spiral_12_11_276.png,1.523930450334245,0.5486183601611598
ss_spiral_12_12_277.png,0.8802087699055001,1.4403817424931473
ss_spiral_12_13_278.png,1.2916148781602095,2.0149957678237103
ss_spiral_12_14_279.png,1.1609176389587523,2.7278471579538257
ss_spiral_12_15_280.png,1.200938532213296,3.914767395354974
ss_spiral_12_16_281.png,1.083768514367112,5.067381626522063
ss_spiral_12_17_282.png,0.8994665736258548,5.923495773137058
ss_spiral_12_18_283.png,1.2635446246710818,6.360128760457216
ss_spiral_12_19_284.png,1.0184575488087209,7.4251593972856735
ss_spiral_12_20_285.png,0.9104523414320779,8.313742385335964
ss_spiral_12_21_286.png,0.909086773865196,8.87387409904524
ss_spiral_13_0_287.png,1.8496501428025822,-9
ss_spiral_13_1_288.png,1.7871619725882093,-8.007733599789463
ss_spiral_13_2_289.png,2.365478630594248,-6.887214185500166
ss_spiral_13_3_290.png,1.9701176566457412,-6.135683133885837
ss_spiral_13_4_291.png,1.7865202637643305,-5.78865798876516
ss_spiral_13_5_292.png,2.3620606435127622,-4.435367503157077
ss_spiral_13_6_293.png,1.7374460585361957,-4.102597452167738
ss_spiral_13_7_294.png,1.9416363384844002,-2.7540391060422684
ss_spiral_13_8_295.png,2.130836514964946,-2.2600613917097507
ss_spiral_13_9_296.png,2.17084795116119,-1.5510342182593433
ss_spiral_13_10_297.png,2.2241514665272777,-0.054743637368404985
ss_spiral_13_11_298.png,2.2667160499728385,0.6410171080780402
ss_spiral_13_12_299.png,2.4163700747454993,1.5442333031092357
ss_spiral_13_13_300.png,2.2462211124895184,1.8786089075750851
ss_spiral_13_14_301.png,1.8737565363527369,3.133299270212546
ss_spiral_13_15_302.png,2.562389528371928,3.682941909674194
ss_spiral_13_16_303.png,1.8534302520445625,4.613909684961859
ss_spiral_13_17_304.png,1.8978499067843075,5.262779768767809
ss_spiral_13_18_305.png,1.911067998045575,6.7607608188425505
ss_spiral_13_19_306.png,2.4756059876496193,6.988826414930777
ss_spiral_13_20_307.png,1.7353218638576473,7.805152632330723
ss_spiral_13_21_308.png,2.0452075109654473,9
ss_spiral_14_0_309.png,3.0277435599123637,-9
ss_spiral_14_1_310.png,2.6355375250724715,-8.532557135779978
ss_spiral_14_2_311.png,3.239382887194541,-6.860047988831242
ss_spiral_14_3_312.png,2.5856796015279384,-6.715382672014854
ss_spiral_14_4_313.png,2.77575079040465,-5.186697059277129
ss_spiral_14_5_314.png,3.047990283606658,-4.745477197865531
ss_spiral_14_6_315.png,3.3219914621971487,-3.956904111698514
ss_spiral_14_7_316.png,2.724163461117789,-2.808794885374578
ss_spiral_14_8_317.png,2.821086568831431,-2.179110023999353
ss_spiral_14_9_318.png,3.171890544474735,-1.0091765381058
ss_spiral_14_10_319.png,2.919127354578378,-0.4770275245446644
ss_spiral_14_11_320.png,2.70174802584029,0.04153772848105425
ss_spiral_14_12_321.png,3.2821241103103884,1.1331542336807283
ss_spiral_14_13_322.png,3.1102088661334046,2.497650488850795
ss_spiral_14_14_323.png,3.226837006993753,3.2472407927053792
ss_spiral_14_15_324.png,3.3061992436034373,3.92517728536391
ss_spiral_14_16_325.png,3.2466102594722814,4.3705619745250495
ss_spiral_14_17_326.png,3.2853113725793315,5.447981034383006
ss_spiral_14_18_327.png,3.2748225120977645,6.693219371485344
ss_spiral_14_19_328.png,3.1437211242877323,7.49843201986886
ss_spiral_14_20_329.png,3.301062750486123,7.772127716982753
ss_spiral_14_21_330.png,2.988603152344159,8.896888190702317
ss_spiral_15_0_331.png,3.7785864981892563,-8.682151979767074
ss_spiral_15_1_332.png,3.6129266748522397,-8.248963511148501
ss_spiral_15_2_333.png,3.590680526185047,-7.044055551413555
ss_spiral_15_3_334.png,4.216040161792576,-6.575176322750231
ss_spiral_15_4_335.png,3.470699697310107,-5.207940580259045
ss_spiral_15_5_336.png,3.65346119235025,-4.386082612096852
ss_spiral_15_6_337.png,4.213343876256748,-4.210019813576733
ss_spiral_15_7_338.png,3.750158375328086,-2.5929988640098176
ss_spiral_15_8_339.png,3.8005776300310314,-1.9355438832787717
ss_spiral_15_9_340.png,4.050650457088525,-1.2169778418537547
ss_spiral_15_10_341.png,3.7293485615106414,-0.449922129708139
ss_spiral_15_11_342.png,4.230109831852046,0.26193011136311634
ss_spiral_15_12_343.png,4.124458857064765,0.9652498930635204
ss_spiral_15_13_344.png,4.0464251167401315,1.9297538128851444
ss_spiral_15_14_345.png,3.6405534402649606,2.6998271582153848
ss_spiral_15_15_346.png,3.4627579355826192,4.083685696914506
ss_spiral_15_16_347.png,3.638620356673548,4.786400238550744
ss_spiral_15_17_348.png,4.040028114865643,5.860400773468902
ss_spiral_15_18_349.png,4.059617786256731,6.033859012299617
ss_spiral_15_19_350.png,3.965624342635192,7.697413143996735
ss_spiral_15_20_351.png,3.9267320230374483,7.858955356119335
ss_spiral_15_21_352.png,3.628583845061434,8.973781036749969
ss_spiral_16_0_353.png,4.501877277437334,-8.597042676303507
ss_spiral_16_1_354.png,4.745434938755036,-8.520291305166216
ss_spiral_16_2_355.png,4.58204462798606,-6.982159113792823
ss_spiral_16_3_356.png,4.389851170526524,-6.617358938298356
ss_spiral_16_4_357.png,4.450913429610806,-5.478972546484307
ss_spiral_16_5_358.png,4.957726881691504,-4.872681349410248
ss_spiral_16_6_359.png,4.389957969317367,-4.035162753924214
ss_spiral_16_7_360.png,5.089729243636853,-2.9173254116197747
ss_spiral_16_8_361.png,4.533445205940986,-2.2310177518482464
ss_spiral_16_9_362.png,4.633721432823997,-1.425012473681022
ss_spiral_16_10_363.png,4.482081489232539,-0.3418898107868223
ss_spiral_16_11_364.png,4.417271100014483,0.5804072882802085
ss_spiral_16_12_365.png,4.578779983940127,1.0983124752501574
ss_spiral_16_13_366.png,4.722899053536889,2.223780228316416
ss_spiral_16_14_367.png,5.123621586232676,2.8125759789010525
ss_spiral_16_15_368.png,4.504326730078481,4.257183145549649
ss_spiral_16_16_369.png,4.763614963535406,4.711163461107148
ss_spiral_16_17_370.png,4.745031416180469,5.777424246909005
ss_spiral_16_18_371.png,4.3180547268220355,6.183961811212702
ss_spiral_16_19_372.png,4.390354364370409,6.939970249623867
ss_spiral_16_20_373.png,4.953292193624058,8.116923806355855
ss_spiral_16_21_374.png,4.711742228299393,8.934411810831323
ss_spiral_17_0_375.png,5.19150814933643,-9
ss_spiral_17_1_376.png,5.651624825327934,-7.8878651623971185
ss_spiral_17_2_377.png,5.300662893996799,-7.288142572976809
ss_spiral_17_3_378.png,5.264117770225243,-6.065855089445962
ss_spiral_17_4_379.png,5.201349835512522,-5.251184992271782
ss_spiral_17_5_380.png,5.402512475742631,-4.964764901531698
ss_spiral_17_6_381.png,5.223066219828294,-3.690967292187254
ss_spiral_17_7_382.png,5.21847276417413,-2.9291081423041003
ss_spiral_17_8_383.png,5.912544448736015,-1.9913931295311516
ss_spiral_17_9_384.png,5.846904042477803,-1.653605343965923
ss_spiral_17_10_385.png,5.962026472576822,-0.049364168883337445
ss_spiral_17_11_386.png,5.562240253207541,0.7064206052164128
ss_spiral_17_12_387.png,5.75873741017264,1.528703692023823
ss_spiral_17_13_388.png,5.5813310584367235,2.160618254645418
ss_spiral_17_14_389.png,5.99489543146524,2.920045214544427
ss_spiral_17_15_390.png,5.401547340083069,3.709336294670483
ss_spiral_17_16_391.png,5.421474098663886,4.93407909020681
ss_spiral_17_17_392.png,5.357399342111364,5.159267400397014
ss_spiral_17_18_393.png,5.675604643528453,6.022369875954508
ss_spiral_17_19_394.png,5.471534936895066,6.907919590875844
ss_spiral_17_20_395.png,5.64199338583275,8.470710356182856
ss_spiral_17_21_396.png,5.706588377506155,8.953131534259835
ss_spiral_18_0_397.png,6.7406426808724085,-9
ss_spiral_18_1_398.png,6.822278264657821,-8.195294780241209
ss_spiral_18_2_399.png,6.207399790729917,-7.188001245385859
ss_spiral_18_3_400.png,6.483940094788218,-6.5818695536677785
ss_spiral_18_4_401.png,6.712152621838734,-5.205859906035824
ss_spiral_18_5_402.png,6.399204466368563,-4.7223032769881055
ss_spiral_18_6_403.png,6.561731196814362,-3.7241431592639995
ss_spiral_18_7_404.png,6.005627052287623,-2.8595603819041733
ss_spiral_18_8_405.png,6.152872055676157,-2.0383138411589385
ss_spiral_18_9_406.png,6.048113815405275,-1.3141950956668833
ss_spiral_18_10_407.png,6.517045968301897,-0.09264301314078799
ss_spiral_18_11_408.png,6.161976092140204,0.5363962632457493
ss_spiral_18_12_409.png,6.795913300827432,1.133288305366116
ss_spiral_18_13_410.png,6.379885754430518,2.2336403123373816
ss_spiral_18_14_411.png,6.3015992140052655,3.0558759543202
ss_spiral_18_15_412.png,6.505553299789379,3.6251178540070734
ss_spiral_18_16_413.png,6.135615987261855,4.754351071179961
ss_spiral_18_17_414.png,6.590760652489639,5.434113112643429
ss_spiral_18_18_415.png,6.010615102024008,6.701249382795128
ss_spiral_18_19_416.png,6.683398189675042,7.075135616425159
ss_spiral_18_20_417.png,6.756757387153274,7.739247834952755
ss_spiral_18_21_418.png,6.593569869294718,9
ss_spiral_19_0_419.png,7.62926291603267,-9
ss_spiral_19_1_420.png,6.895393278579844,-7.834733125632921
ss_spiral_19_2_421.png,7.449411817578557,-7.482335873241867
ss_spiral_19_3_422.png,7.1231103238425515,-6.758580960375136
ss_spiral_19_4_423.png,7.075946792519551,-5.445340892132745
ss_spiral_19_5_424.png,7.384070750034824,-5.0502252229895275
ss_spiral_19_6_425.png,6.939318613591874,-3.723022551599926
ss_spiral_19_7_426.png,7.197444224687276,-2.857550592898223
ss_spiral_19_8_427.png,7.077636530931036,-1.8242897965727676
ss_spiral_19_9_428.png,7.344856528280964,-1.0714653977974902
ss_spiral_19_10_429.png,7.389870765795656,-0.5889871871052634
ss_spiral_19_11_430.png,7.454183016584978,0.493839202074153
ss_spiral_19_12_431.png,7.626234293723311,1.1056266052995833
ss_spiral_19_13_432.png,6.860611492289452,2.322409452904332
ss_spiral_19_14_433.png,7.022189160624172,2.6370527109570343
ss_spiral_19_15_434.png,7.169203088281114,4.082083498341553
ss_spiral_19_16_435.png,6.875160772887591,4.504588929584023
ss_spiral_19_17_436.png,7.609980786414631,5.3029534902025235
ss_spiral_19_18_437.png,7.381022906742985,6.104617446554374
ss_spiral_19_19_438.png,7.562543332712972,7.567420246401418
ss_spiral_19_20_439.png,7.427223720577909,8.089096199900785
ss_spiral_19_21_440.png,6.88346271100785,8.834845216743204
ss_spiral_20_0_441.png,8.317383048110864,-8.69499981868396
ss_spiral_20_1_442.png,7.950619329426069,-8.538799301372608
ss_spiral_20_2_443.png,8.14251919489754,-7.71253634356276
ss_spiral_20_3_444.png,7.890702710373366,-6.622945680122137
ss_spiral_20_4_445.png,8.281000475982108,-5.8945250010122
ss_spiral_20_5_446.png,8.035654385960305,-4.630723753222918
ss_spiral_20_6_447.png,8.083948590993216,-3.539192712688748
ss_spiral_20_7_448.png,8.21346601879142,-3.319881812731693
ss_spiral_20_8_449.png,7.786388119553291,-2.440812538302665
ss_spiral_20_9_450.png,8.497821805741873,-1.1698967023084073
ss_spiral_20_10_451.png,8.265741771183452,-0.8190681919900817
ss_spiral_20_11_452.png,7.715889239245929,0.5427544447167532
ss_spiral_20_12_453.png,8.424007787213952,1.0715145702198758
ss_spiral_20_13_454.png,8.49583427330744,2.319758080303271
ss_spiral_20_14_455.png,8.094173826490989,2.587903594172747
ss_spiral_20_15_456.png,8.461782195921549,3.7838008800440464
ss_spiral_20_16_457.png,7.909888588296253,4.845745312417291
ss_spiral_20_17_458.png,8.139754004901134,5.383528516986144
ss_spiral_20_18_459.png,8.1171965668355,6.2456234915883035
ss_spiral_20_19_460.png,7.954120067698297,7.0749053451043755
ss_spiral_20_20_461.png,8.191694837208363,8.38524337616657
ss_spiral_20_21_462.png,8.359716045017269,9
ss_spiral_21_0_463.png,8.631539892950318,-8.659254490935663
ss_spiral_21_1_464.png,9,-8.20551188716739
ss_spiral_21_2_465.png,8.865871245009684,-7.515615449541363
ss_spiral_21_3_466.png,8.849503809666674,-6.301677325202539
ss_spiral_21_4_467.png,8.659713053014553,-5.668877056531345
ss_spiral_21_5_468.png,9,-5.117486778270565
ss_spiral_21_6_469.png,8.778325376338143,-3.694559909027282
ss_spiral_21_7_470.png,8.914778238145777,-3.2038787443544883
ss_spiral_21_8_471.png,8.788022249401868,-2.5314882964920287
ss_spiral_21_9_472.png,8.751597204330935,-0.9346386201316585
ss_spiral_21_10_473.png,9,-0.37912853386343653
ss_spiral_21_11_474.png,8.955560664776975,0.059884333135548085
ss_spiral_21_12_475.png,8.699387653656457,1.710452501242008
ss_spiral_21_13_476.png,9,1.939953858581515
ss_spiral_21_14_477.png,8.90058075269613,2.789204813172361
ss_spiral_21_15_478.png,9,4.2812528679213955
ss_spiral_21_16_479.png,9,4.622178791487315
ss_spiral_21_17_480.png,8.969118457859956,5.177997145411814
ss_spiral_21_18_481.png,9,6.158236991638962
ss_spiral_21_19_482.png,9,7.629396692799189
ss_spiral_21_20_483.png,8.699537282502318,8.002699762845749
ss_spiral_21_21_484.png,9,8.952458816497126
